…
``` r
by_pop <- group_by(TE, pop, country, familyname, sex) %>% dplyr::summarise(sd=sd(copynumber), copynumber = mean(copynumber), count=n())
```

    ## `summarise()` has grouped output by 'pop', 'country', 'familyname'. You can
    ## override using the `.groups` argument.

``` r
data <- inner_join(x = coordinates, y = by_pop, by = "pop")
data
```

    ## # A tibble: 194,832 × 9
    ##    pop       latitude longitude country      famil…¹ sex        sd copyn…² count
    ##    <chr>        <dbl>     <dbl> <chr>        <chr>   <chr>   <dbl>   <dbl> <int>
    ##  1 Abkhasian       43        41 West Eurasia 6kbHsap male  7.08e+0 3.53e+2     2
    ##  2 Abkhasian       43        41 West Eurasia ALINE   male  1.22e-2 1.40e-1     2
    ##  3 Abkhasian       43        41 West Eurasia ALR     male  1.86e+3 3.19e+4     2
    ##  4 Abkhasian       43        41 West Eurasia ALR_    male  2.19e+2 7.21e+4     2
    ##  5 Abkhasian       43        41 West Eurasia ALR1    male  1.75e+3 7.13e+4     2
    ##  6 Abkhasian       43        41 West Eurasia ALR2    male  6.37e+1 1.62e+3     2
    ##  7 Abkhasian       43        41 West Eurasia ALRa    male  5.15e+0 2.33e+2     2
    ##  8 Abkhasian       43        41 West Eurasia ALRa_   male  2.39e+1 1.40e+3     2
    ##  9 Abkhasian       43        41 West Eurasia ALRb    male  2.52e+3 2.99e+4     2
    ## 10 Abkhasian       43        41 West Eurasia ALU     male  1.79e+2 1.37e+5     2
    ## # … with 194,822 more rows, and abbreviated variable names ¹​familyname,
    ## #   ²​copynumber
…
