…
SGDP_class <- full_join(SGDP_stable, classification, by="familyname")

write_tsv(SGDP_class, "/Volumes/Temp1/rpianezza/SGDP/summary/SGDP_classified.tsv", col_names = TRUE)

DNA_names <- c("Crypton", "hAT", "Helitron", "Kolobok", "Mariner/Tc1", "Merlin", "MuDR", "piggyBac", "DNA transposon")
LINE_names <- c("L1", "CR1", "L2", "Crack", "RTE", "RTEX", "R4", "Vingi", "Tx1", "Penelope")
SINE_names <- c("SINE1/7SL", "SINE2/tRNA", "SINE3/5S", "SINE")
LTR_names <- c("ERV1", "ERV2", "ERV3", "Gypsy", "Endogenous Retrovirus", "LTR Retrotransposon", "Long terminal repeat", "Non-LTR Retrotransposon")
satellites_names <- c("Satellite", "satellite", "SAT")

(classification <- SGDP_class %>% mutate(class = case_when(superfamily %in% DNA_names ~ "DNA", superfamily %in% LINE_names ~ "LINE", superfamily %in% SINE_names ~ "SINE", superfamily %in% LTR_names ~ "LTR", superfamily %in% satellites_names ~ "satellite")))
```

    ## # A tibble: 236,717 × 13
    ##    biosam…¹ sex   pop   country type  famil…² length reads copyn…³ batch super…⁴
    ##    <chr>    <chr> <chr> <chr>   <chr> <chr>    <dbl> <dbl>   <dbl> <chr> <chr>  
    ##  1 SAMEA33… fema… Kinh  East A… scg   chr1:9…   4152 2824.   0.962 flo   <NA>   
    ##  2 SAMEA33… fema… Kinh  East A… scg   chr1:9…   5136 2964.   0.816 flo   <NA>   
    ##  3 SAMEA33… fema… Kinh  East A… scg   chr1:1…   3064 1971.   0.910 flo   <NA>   
    ##  4 SAMEA33… fema… Kinh  East A… scg   chr1:1…   3239 2256.   0.985 flo   <NA>   
    ##  5 SAMEA33… fema… Kinh  East A… scg   chr1:1…   4035 2736.   0.959 flo   <NA>   
    ##  6 SAMEA33… fema… Kinh  East A… scg   chr1:1…   2500 1810.   1.02  flo   <NA>   
    ##  7 SAMEA33… fema… Kinh  East A… scg   chr1:1…   2599 1826.   0.993 flo   <NA>   
    ##  8 SAMEA33… fema… Kinh  East A… scg   chr1:1…   2124 1297.   0.863 flo   <NA>   
    ##  9 SAMEA33… fema… Kinh  East A… scg   chr1:2…   6284 3834.   0.862 flo   <NA>   
    ## 10 SAMEA33… fema… Kinh  East A… scg   chr1:2…   3222 2167.   0.951 flo   <NA>   
    ## # … with 236,707 more rows, 2 more variables: shared_with <chr>, class <chr>,
    ## #   and abbreviated variable names ¹​biosample, ²​familyname, ³​copynumber,
    ## #   ⁴​superfamily
…
