…
loadings <- loadings_PCA_copynumber(HGDP_final)
```

``` r
(femalePC1_loadings <- select(loadings, c(familyname, females_PC1)) %>% arrange(desc(abs(females_PC1))))
```

    ## # A tibble: 965 × 2
    ##    familyname females_PC1
    ##    <chr>            <dbl>
    ##  1 MLT1B          -0.0437
    ##  2 MLT1A1         -0.0437
    ##  3 L1PA16         -0.0437
    ##  4 TIGGER2        -0.0437
    ##  5 MER4D1         -0.0436
    ##  6 TIGGER1        -0.0436
    ##  7 MSTA           -0.0436
    ##  8 L1PA10         -0.0436
    ##  9 MLT1D          -0.0436
    ## 10 L1MC1          -0.0435
    ## # … with 955 more rows

``` r
(malePC1_loadings <- select(loadings, c(familyname, males_PC1)) %>% arrange(desc(abs(males_PC1))))
```

    ## # A tibble: 965 × 2
    ##    familyname males_PC1
    ##    <chr>          <dbl>
    ##  1 MLT1A1        0.0463
    ##  2 TIGGER1       0.0463
    ##  3 MLT1B         0.0463
    ##  4 MLT1D         0.0462
    ##  5 TIGGER2       0.0462
    ##  6 MSTD          0.0462
    ##  7 MSTA          0.0461
    ##  8 MER4D1        0.0461
    ##  9 L1MC1         0.0461
    ## 10 MLT1A0        0.0461
    ## # … with 955 more rows

``` r
(femalePC2_loadings <- select(loadings, c(familyname, females_PC2)) %>% arrange(desc(abs(females_PC2))))
```

    ## # A tibble: 965 × 2
    ##    familyname females_PC2
    ##    <chr>            <dbl>
    ##  1 LTR12C           0.159
    ##  2 MER52D           0.153
    ##  3 MER52B           0.153
    ##  4 MER52A           0.152
    ##  5 LTR2752          0.142
    ##  6 LTR12E           0.139
    ##  7 MER52C           0.135
    ##  8 LTR12D           0.131
    ##  9 LTR1B1           0.125
    ## 10 HERV18           0.125
    ## # … with 955 more rows

``` r
(malePC2_loadings <- select(loadings, c(familyname, males_PC2)) %>% arrange(desc(abs(males_PC2))))
```

    ## # A tibble: 965 × 2
    ##    familyname males_PC2
    ##    <chr>          <dbl>
    ##  1 LTR12C         0.130
    ##  2 MER52D         0.123
    ##  3 MER52A         0.122
    ##  4 MER52B         0.118
    ##  5 HERV18         0.116
    ##  6 LTR2752        0.113
    ##  7 LTR12D         0.111
    ##  8 MER52C         0.108
    ##  9 LTR1B1         0.107
    ## 10 LTR12E         0.103
    ## # … with 955 more rows
