…
``` r
HGDP_nobiased_samples <- filter(a_HGDP, (a > (-0.5)) & (a<0.5)) %>% select(ID) %>% pull()
HGDP_nobiasedID <- filter(HGDP, ID %in% HGDP_nobiased_samples)
HGDP_nobiasedID_pcrfree <- filter(HGDP_pcr_free, ID %in% HGDP_nobiased_samples)
HGDP_nobiasedID_pcrfree_varTE <- filter(HGDP_nobiasedID_pcrfree, familyname %in% HvariableTEs)

loadings_HGDP <- loadings_PCA_copynumber(HGDP_nobiasedID_pcrfree_varTE, "HGDP - GC biased samples excluded - Variable TEs")
(ordered_loadings_HGDP <- loadings_HGDP %>% arrange(desc(females_PC2)))
```

    ## # A tibble: 450 × 21
    ##    familyn…¹ femal…² males…³ femal…⁴ males…⁵ female…⁶ males_…⁷ female…⁸ males_…⁹
    ##    <chr>       <dbl>   <dbl>   <dbl>   <dbl>    <dbl>    <dbl>    <dbl>    <dbl>
    ##  1 ALR1      -0.0232 -0.0159  0.0715 -0.0554  0.125    0.102   -0.138    0.191  
    ##  2 L1M4B     -0.0453 -0.0443  0.0698 -0.0843 -0.114   -0.0852  -0.00307  0.0582 
    ##  3 L1MEf_5e… -0.0457 -0.0448  0.0685 -0.0854 -0.0986  -0.0777  -0.00304  0.0449 
    ##  4 LTR61     -0.0424 -0.0388  0.0683 -0.0819  0.0802   0.0845  -0.0244   0.00682
    ##  5 ALRb      -0.0179 -0.0161  0.0672 -0.0562  0.122    0.0924  -0.142    0.163  
    ##  6 ALR_      -0.0220 -0.0165  0.0665 -0.0600  0.0607   0.0736  -0.185    0.204  
    ##  7 CHARLIE1  -0.0468 -0.0470  0.0641 -0.0799 -0.0770  -0.0515   0.0547  -0.0194 
    ##  8 LTR10E    -0.0450 -0.0442  0.0632 -0.0428  0.0939   0.112    0.0736  -0.0764 
    ##  9 ALR       -0.0191 -0.0106  0.0628 -0.0473  0.0944   0.0822  -0.0832   0.157  
    ## 10 L1MB5     -0.0503 -0.0507  0.0612 -0.0691  0.00217  0.00558 -0.0188   0.00620
    ## # … with 440 more rows, 12 more variables: females_PC5 <dbl>, males_PC5 <dbl>,
    ## #   females_PC6 <dbl>, males_PC6 <dbl>, females_PC7 <dbl>, males_PC7 <dbl>,
    ## #   females_PC8 <dbl>, males_PC8 <dbl>, females_PC9 <dbl>, males_PC9 <dbl>,
    ## #   females_PC10 <dbl>, males_PC10 <dbl>, and abbreviated variable names
    ## #   ¹​familyname, ²​females_PC1, ³​males_PC1, ⁴​females_PC2, ⁵​males_PC2,
    ## #   ⁶​females_PC3, ⁷​males_PC3, ⁸​females_PC4, ⁹​males_PC4
…
``` r
SGDP_nobiased_samples <- filter(a_SGDP, (a > (-0.5)) & (a<0.5)) %>% select(ID) %>% pull()
SGDP_nobiasedID <- filter(SGDP, ID %in% SGDP_nobiased_samples)
SGDP_nobiasedID_pcrfree <- filter(SGDP_pcr_free, ID %in% SGDP_nobiased_samples)
SGDP_nobiasedID_pcrfree_varTE <- filter(SGDP_nobiasedID_pcrfree, familyname %in% SvariableTEs)

loadings_SGDP <- loadings_PCA_copynumber(SGDP_nobiasedID_pcrfree_varTE, "SGDP - GC biased samples excluded - Variable TEs")
(ordered_loadings_SGDP <- loadings_SGDP %>% arrange(desc(females_PC2)))
```

    ## # A tibble: 464 × 21
    ##    familyname femal…¹ males_…² femal…³ males…⁴ female…⁵ males…⁶ female…⁷ males…⁸
    ##    <chr>        <dbl>    <dbl>   <dbl>   <dbl>    <dbl>   <dbl>    <dbl>   <dbl>
    ##  1 SVA2        0.0213 -0.0121    0.148   0.135  0.0408  -0.0455  0.00662 -0.0747
    ##  2 SVA_A       0.0178 -0.00711   0.148   0.137  0.0676  -0.0625  0.0109  -0.0400
    ##  3 PTR5        0.0272 -0.0210    0.125   0.111 -0.0822   0.0709  0.0316  -0.122 
    ##  4 GSAT        0.0264 -0.0210    0.124   0.111 -0.0576   0.0196  0.114   -0.0929
    ##  5 MER52A      0.0370 -0.0320    0.120   0.119 -0.0524   0.0307 -0.00892 -0.0589
    ##  6 MER52C      0.0369 -0.0324    0.118   0.111  0.00122 -0.0199  0.0295  -0.0867
    ##  7 LTR2752     0.0382 -0.0343    0.117   0.114 -0.0388   0.0408 -0.0228  -0.0270
    ##  8 MER52D      0.0390 -0.0323    0.114   0.117 -0.0390   0.0363  0.00152 -0.0556
    ##  9 ALU         0.0266 -0.0211    0.113   0.119  0.146   -0.117   0.0414  -0.0316
    ## 10 GSATX       0.0261 -0.0200    0.111   0.113 -0.0409   0.0210  0.0613  -0.0686
    ## # … with 454 more rows, 12 more variables: females_PC5 <dbl>, males_PC5 <dbl>,
    ## #   females_PC6 <dbl>, males_PC6 <dbl>, females_PC7 <dbl>, males_PC7 <dbl>,
    ## #   females_PC8 <dbl>, males_PC8 <dbl>, females_PC9 <dbl>, males_PC9 <dbl>,
    ## #   females_PC10 <dbl>, males_PC10 <dbl>, and abbreviated variable names
    ## #   ¹​females_PC1, ²​males_PC1, ³​females_PC2, ⁴​males_PC2, ⁵​females_PC3,
    ## #   ⁶​males_PC3, ⁷​females_PC4, ⁸​males_PC4
