…
HGDP_class <- full_join(HGDPcutoff, classification, by="familyname")

write_tsv(HGDP_class, "/Volumes/Temp1/rpianezza/TE/summary-HGDP/HGDP_cutoff_classified.tsv", col_names = TRUE)

DNA_names <- c("Crypton", "hAT", "Helitron", "Kolobok", "Mariner/Tc1", "Merlin", "MuDR", "piggyBac", "DNA transposon")
LINE_names <- c("L1", "CR1", "L2", "Crack", "RTE", "RTEX", "R4", "Vingi", "Tx1", "Penelope")
SINE_names <- c("SINE1/7SL", "SINE2/tRNA", "SINE3/5S", "SINE")
LTR_names <- c("ERV1", "ERV2", "ERV3", "Gypsy", "Endogenous Retrovirus", "LTR Retrotransposon", "Long terminal repeat", "Non-LTR Retrotransposon")
satellites_names <- c("Satellite", "satellite", "SAT")

(classification <- HGDP_class %>% mutate(class = case_when(superfamily %in% DNA_names ~ "DNA", superfamily %in% LINE_names ~ "LINE", superfamily %in% SINE_names ~ "SINE", superfamily %in% LTR_names ~ "LTR", superfamily %in% satellites_names ~ "satellite")))
```

    ## # A tibble: 1,396,835 × 13
    ##    ID       pop   sex   country type  famil…¹ length reads copyn…² batch super…³
    ##    <chr>    <chr> <chr> <chr>   <chr> <chr>    <dbl> <dbl>   <dbl> <chr> <chr>  
    ##  1 HGDP000… Brah… male  Centra… scg   chr1:9…   5136 1105.   0.861 ro    <NA>   
    ##  2 HGDP000… Brah… male  Centra… scg   chr1:1…   3064  832.   1.09  ro    <NA>   
    ##  3 HGDP000… Brah… male  Centra… scg   chr1:1…   3239  901.   1.11  ro    <NA>   
    ##  4 HGDP000… Brah… male  Centra… scg   chr1:1…   4035 1102.   1.09  ro    <NA>   
    ##  5 HGDP000… Brah… male  Centra… scg   chr1:1…   2500  733.   1.17  ro    <NA>   
    ##  6 HGDP000… Brah… male  Centra… scg   chr1:1…   2599  580.   0.894 ro    <NA>   
    ##  7 HGDP000… Brah… male  Centra… scg   chr1:1…   2124  477.   0.899 ro    <NA>   
    ##  8 HGDP000… Brah… male  Centra… scg   chr1:2…   6284 1527.   0.973 ro    <NA>   
    ##  9 HGDP000… Brah… male  Centra… scg   chr1:2…   3222  889.   1.10  ro    <NA>   
    ## 10 HGDP000… Brah… male  Centra… scg   chr1:3…   3698  868.   0.940 ro    <NA>   
    ## # … with 1,396,825 more rows, 2 more variables: shared_with <chr>, class <chr>,
    ## #   and abbreviated variable names ¹​familyname, ²​copynumber, ³​superfamily
…
