…
``` r
id <- HGDP %>% filter(sex=="male") %>% select(ID) %>% distinct()

hap2 <- inner_join(hap1, id, by="ID")

(metadata_hap <- inner_join(hap2, HGDP, by="ID"))
```

    ## # A tibble: 932,910 × 14
    ##    ID     haplo…¹ hap_g…² pop   sex   country type  famil…³ length reads copyn…⁴
    ##    <chr>  <chr>   <chr>   <chr> <chr> <chr>   <chr> <chr>    <dbl> <dbl>   <dbl>
    ##  1 HGDP0… R1a     7       Brah… male  Centra… scg   chr1:9…   5136 1105.   0.861
    ##  2 HGDP0… R1a     7       Brah… male  Centra… scg   chr1:1…   3064  832.   1.09 
    ##  3 HGDP0… R1a     7       Brah… male  Centra… scg   chr1:1…   3239  901.   1.11 
    ##  4 HGDP0… R1a     7       Brah… male  Centra… scg   chr1:1…   4035 1102.   1.09 
    ##  5 HGDP0… R1a     7       Brah… male  Centra… scg   chr1:1…   2500  733.   1.17 
    ##  6 HGDP0… R1a     7       Brah… male  Centra… scg   chr1:1…   2599  580.   0.894
    ##  7 HGDP0… R1a     7       Brah… male  Centra… scg   chr1:1…   2124  477.   0.899
    ##  8 HGDP0… R1a     7       Brah… male  Centra… scg   chr1:2…   6284 1527.   0.973
    ##  9 HGDP0… R1a     7       Brah… male  Centra… scg   chr1:2…   3222  889.   1.10 
    ## 10 HGDP0… R1a     7       Brah… male  Centra… scg   chr1:3…   3698  868.   0.940
    ## # … with 932,900 more rows, 3 more variables: batch <chr>, superfamily <chr>,
    ## #   shared_with <chr>, and abbreviated variable names ¹​haplotype, ²​hap_group,
    ## #   ³​familyname, ⁴​copynumber
…
