…
``` r
data <- filter(HGDP, type=="te") %>% group_by(familyname, sex) %>% dplyr::summarise(sd=sd(copynumber), mean=mean(copynumber))
```

    ## `summarise()` has grouped output by 'familyname'. You can override using the
    ## `.groups` argument.

``` r
f<-filter(data, sex=="female") %>% dplyr::rename(f_mean = mean, f_sd = sd)
m<-filter(data, sex=="male") %>% dplyr::rename(m_mean = mean, m_sd = sd)

(final_data <- inner_join(f, m, by = "familyname") %>% select(familyname, f_mean, m_mean, f_sd, m_sd) %>% mutate(f_mean_log=log(f_mean), m_mean_log=log(m_mean), diff=m_mean-f_mean, abs_diff=abs(diff), ratio=case_when(diff>=0 ~ m_mean/f_mean, diff<0 ~ f_mean/m_mean), more_in=case_when(diff>=0 ~ "male", diff<0 ~ "female")) %>% arrange(desc(ratio)) %>% mutate(familyname=fct_reorder(familyname,ratio)))
```

    ## # A tibble: 968 × 11
    ## # Groups:   familyname [968]
    ##    familyname    f_mean  m_mean    f_sd    m_sd f_mea…¹ m_mea…²     diff abs_d…³
    ##    <fct>          <dbl>   <dbl>   <dbl>   <dbl>   <dbl>   <dbl>    <dbl>   <dbl>
    ##  1 BSRd         0       4.30e-4 0       1.70e-3 -Inf      -7.75  4.30e-4 4.30e-4
    ##  2 EUTREP5      0       6.10e-4 0       2.08e-3 -Inf      -7.40  6.10e-4 6.10e-4
    ##  3 UCON79       0       5.02e-4 0       2.95e-3 -Inf      -7.60  5.02e-4 5.02e-4
    ##  4 X15_DNA      0       2.54e-4 0       1.50e-3 -Inf      -8.28  2.54e-4 2.54e-4
    ##  5 X21_DNA      0       2.38e-4 0       1.45e-3 -Inf      -8.34  2.38e-4 2.38e-4
    ##  6 X25_DNA      0       1.00e-4 0       8.25e-4 -Inf      -9.21  1.00e-4 1.00e-4
    ##  7 HSATI        2.21e+2 1.64e+3 3.95e+1 3.71e+2    5.40    7.40  1.42e+3 1.42e+3
    ##  8 UCON65       3.26e-4 1.46e-3 1.30e-3 3.61e-3   -8.03   -6.53  1.14e-3 1.14e-3
    ##  9 Eutr2        1.52e-3 4.51e-4 3.47e-3 1.68e-3   -6.49   -7.70 -1.07e-3 1.07e-3
    ## 10 Eutr13       3.95e-3 1.34e-3 8.37e-3 4.31e-3   -5.54   -6.61 -2.60e-3 2.60e-3
    ## # … with 958 more rows, 2 more variables: ratio <dbl>, more_in <chr>, and
    ## #   abbreviated variable names ¹​f_mean_log, ²​m_mean_log, ³​abs_diff
…
