…
``` r
(matrix <- read_tsv("/Volumes/Temp1/rpianezza/PCA-SNPs-all-analysis/matrixes/filter_variance/variance_matrix_final"))
```

    ## Rows: 3331470 Columns: 6
    ## ── Column specification ────────────────────────────────────────────────────────
    ## Delimiter: "\t"
    ## chr (3): familyname, type, main
    ## dbl (3): position, avg, var
    ## 
    ## ℹ Use `spec()` to retrieve the full column specification for this data.
    ## ℹ Specify the column types or set `show_col_types = FALSE` to quiet this message.

    ## # A tibble: 3,331,470 × 6
    ##    familyname type  position main    avg    var
    ##    <chr>      <chr>    <dbl> <chr> <dbl>  <dbl>
    ##  1 LTR65      te           1 T     1.00  0     
    ##  2 LTR65      te           2 G     1.00  0     
    ##  3 LTR65      te           3 A     1     0     
    ##  4 LTR65      te           4 G     1.00  0     
    ##  5 LTR65      te           5 A     1.00  0     
    ##  6 LTR65      te           6 A     1     0     
    ##  7 LTR65      te           7 A     1     0     
    ##  8 LTR65      te           8 A     0.621 0.0065
    ##  9 LTR65      te           9 T     1     0     
    ## 10 LTR65      te          10 A     0.994 0.0003
    ## # … with 3,331,460 more rows
…
From RepBase, we know the taxonomic group in which every TE family is
shared. I converted this into TMRCA and looked for a correlation between
the average variance of the sequence across the samples and the TMRCA.
This is expected due to higher time to mutate. Wee see that there is a
positive correlation for all the TE families.

## SCGs variance

``` r
(scg <- matrix %>% filter(type %in% c("scg","scgx")) %>% group_by(familyname) %>% dplyr::summarise(avg_var = mean(var)) %>% arrange(desc(avg_var)))
```

    ## # A tibble: 507 × 2
    ##    familyname                avg_var
    ##    <chr>                       <dbl>
    ##  1 chr16:765731-768798      0.0159  
    ##  2 chr7:55342315-55344958   0.00254 
    ##  3 chr1:960583-965719       0.00247 
    ##  4 chr16:792523-795720      0.00182 
    ##  5 chr6:31114824-31117299   0.00139 
    ##  6 chr16:722624-724635      0.00133 
    ##  7 chr16:89883393-89886130  0.00120 
    ##  8 chr9:137452464-137454492 0.00109 
    ##  9 chr16:88742820-88745464  0.000994
    ## 10 chr19:2338759-2341187    0.000967
    ## # … with 497 more rows

``` r
scg_nogc <- matrix_nogc %>% filter(type %in% c("scg","scgx")) %>% group_by(familyname) %>% dplyr::summarise(avg_var = mean(var)) %>% arrange(desc(avg_var))

(scg_SNPs <- matrix %>% filter(type %in% c("scg","scgx")) %>% arrange(desc(var)))
```

    ## # A tibble: 1,673,584 × 6
    ##    familyname                type  position main    avg   var
    ##    <chr>                     <chr>    <dbl> <chr> <dbl> <dbl>
    ##  1 chr19:17402938-17405630   scg          1 T     0.497 0.250
    ##  2 chr10:133272737-133276856 scg          1 A     0.521 0.250
    ##  3 chr16:765731-768798       scg       1924 G     0.477 0.250
    ##  4 chr16:765731-768798       scg       1983 G     0.476 0.250
    ##  5 chr16:765731-768798       scg       1986 G     0.526 0.250
    ##  6 chr16:765731-768798       scg       1985 G     0.532 0.249
    ##  7 chr16:765731-768798       scg       1990 A     0.508 0.249
    ##  8 chr16:765731-768798       scg       1981 G     0.468 0.249
    ##  9 chr16:765731-768798       scg       1926 G     0.462 0.249
    ## 10 chr16:765731-768798       scg       1993 A     0.488 0.249
    ## # … with 1,673,574 more rows

``` r
(scg_nogc_SNPs <- matrix_nogc %>% filter(type %in% c("scg","scgx")) %>% arrange(desc(var)))
```

    ## # A tibble: 1,673,584 × 6
    ##    familyname                type  position main    avg   var
    ##    <chr>                     <chr>    <dbl> <chr> <dbl> <dbl>
    ##  1 chr16:765731-768798       scg       1983 G     0.501 0.250
    ##  2 chr10:133272737-133276856 scg          2 C     0.508 0.250
    ##  3 chr19:17402938-17405630   scg          1 T     0.484 0.250
    ##  4 chr16:765731-768798       scg       1981 G     0.498 0.25 
    ##  5 chr16:765731-768798       scg       1924 G     0.475 0.250
    ##  6 chr10:133272737-133276856 scg          1 A     0.472 0.250
    ##  7 chr16:765731-768798       scg       1976 G     0.467 0.249
    ##  8 chr16:765731-768798       scg       1978 G     0.465 0.249
    ##  9 chr16:765731-768798       scg       1926 G     0.461 0.249
    ## 10 chr16:765731-768798       scg       1977 G     0.459 0.249
    ## # … with 1,673,574 more rows
…
``` r
(snps <- scg_SNPs %>% filter(var > 0.1247) %>% dplyr::summarise(count = n()))
```

    ## # A tibble: 1 × 1
    ##   count
    ##   <int>
    ## 1   998

``` r
(snps_per_gene <- scg_SNPs %>% filter(var > 0.1247) %>% group_by(familyname) %>% dplyr::summarise(count = n()) %>% arrange(desc(count)))
```

    ## # A tibble: 299 × 2
    ##    familyname                count
    ##    <chr>                     <int>
    ##  1 chr16:765731-768798         185
    ##  2 chr1:960583-965719           49
    ##  3 chr22:19971227-19987093      17
    ##  4 chr12:53962307-53974956      15
    ##  5 chr16:88742820-88745464      15
    ##  6 chr16:722624-724635          14
    ##  7 chr14:105475310-105478776    12
    ##  8 chr10:120899837-120903175    11
    ##  9 chr6:93409653-93419547       11
    ## 10 chr3:49805208-49813953        8
    ## # … with 289 more rows

``` r
(snps_nogc <- scg_nogc_SNPs %>% filter(var > 0.1219) %>% dplyr::summarise(count = n()))
```

    ## # A tibble: 1 × 1
    ##   count
    ##   <int>
    ## 1   998

``` r
(snps_per_gene_nogc <- scg_nogc_SNPs %>% filter(var > 0.1219) %>% group_by(familyname) %>% dplyr::summarise(count = n()) %>% arrange(desc(count)))
```

    ## # A tibble: 290 × 2
    ##    familyname                count
    ##    <chr>                     <int>
    ##  1 chr16:765731-768798         184
    ##  2 chr1:960583-965719           40
    ##  3 chr12:53962307-53974956      15
    ##  4 chr16:88742820-88745464      15
    ##  5 chr16:722624-724635          14
    ##  6 chr22:19971227-19987093      14
    ##  7 chr14:105475310-105478776    12
    ##  8 chr10:120899837-120903175    11
    ##  9 chr6:93409653-93419547       11
    ## 10 chr11:2140500-2148339         9
    ## # … with 280 more rows
…
