…
``` r
data <- filter(SGDP, type=="te") %>% group_by(familyname, sex) %>% dplyr::summarise(sd=sd(copynumber), mean=mean(copynumber))
```

    ## `summarise()` has grouped output by 'familyname'. You can override using the
    ## `.groups` argument.

``` r
f<-filter(data, sex=="female") %>% dplyr::rename(f_mean = mean, f_sd = sd)
m<-filter(data, sex=="male") %>% dplyr::rename(m_mean = mean, m_sd = sd)

(final_data <- inner_join(f, m, by = "familyname") %>% select(familyname, f_mean, m_mean, f_sd, m_sd) %>% mutate(f_mean_log=log(f_mean), m_mean_log=log(m_mean), diff=m_mean-f_mean, abs_diff=abs(diff), ratio=case_when(diff>=0 ~ m_mean/f_mean, diff<0 ~ f_mean/m_mean), more_in=case_when(diff>=0 ~ "male", diff<0 ~ "female")) %>% arrange(desc(ratio)) %>% mutate(familyname=fct_reorder(familyname,ratio)))
```

    ## # A tibble: 984 × 11
    ## # Groups:   familyname [984]
    ##    familyname    f_mean  m_mean    f_sd    m_sd f_mea…¹ m_mea…²     diff abs_d…³
    ##    <fct>          <dbl>   <dbl>   <dbl>   <dbl>   <dbl>   <dbl>    <dbl>   <dbl>
    ##  1 UCON39       6.13e-5 0       6.22e-4 0         -9.70 -Inf    -6.13e-5 6.13e-5
    ##  2 UCON79       0       6.41e-5 0       8.06e-4 -Inf      -9.65  6.41e-5 6.41e-5
    ##  3 X5a_DNA      2.58e-5 0       2.62e-4 0        -10.6  -Inf    -2.58e-5 2.58e-5
    ##  4 HSATI        3.03e+2 2.10e+3 7.97e+1 7.28e+2    5.71    7.65  1.80e+3 1.80e+3
    ##  5 LTR91        3.06e-4 9.85e-5 1.15e-3 6.26e-4   -8.09   -9.23 -2.07e-4 2.07e-4
    ##  6 BSRd         1.98e-4 5.41e-4 1.17e-3 2.10e-3   -8.53   -7.52  3.43e-4 3.43e-4
    ##  7 X11_LINE     5.82e-5 2.18e-5 4.19e-4 2.73e-4   -9.75  -10.7  -3.65e-5 3.65e-5
    ##  8 X21_DNA      1.05e-4 2.79e-4 1.06e-3 1.47e-3   -9.16   -8.18  1.74e-4 1.74e-4
    ##  9 UCON65       2.68e-3 1.07e-3 1.56e-2 3.14e-3   -5.92   -6.84 -1.61e-3 1.61e-3
    ## 10 MamGypLTR2   3.99e-5 1.61e-5 2.36e-4 1.09e-4  -10.1   -11.0  -2.38e-5 2.38e-5
    ## # … with 974 more rows, 2 more variables: ratio <dbl>, more_in <chr>, and
    ## #   abbreviated variable names ¹​f_mean_log, ²​m_mean_log, ³​abs_diff
…
