…
    ## Rows: 276 Columns: 9
    ## ── Column specification ────────────────────────────────────────────────────────
    ## Delimiter: "\t"
    ## chr (9): sample, sex, biosample, X4, X5, X6, X7, X8, X9
    ## 
    ## ℹ Use `spec()` to retrieve the full column specification for this data.
    ## ℹ Specify the column types or set `show_col_types = FALSE` to quiet this message.

``` r
sample_and_coord <- inner_join(sample_ID, coordinates, by="pop")
(metadata <- inner_join(sample_and_coord, sex, by="sample") %>% arrange(pop) %>% relocate(sex, .before=pop) %>% relocate(country, .before=latitude))
```

    ## # A tibble: 276 × 7
    ##    sample    biosample    sex    pop       country               latit…¹ longi…²
    ##    <chr>     <chr>        <chr>  <chr>     <chr>                   <dbl>   <dbl>
    ##  1 abh107    SAMEA3302655 male   Abkhasian "West Eurasia "          43      41  
    ##  2 abh100    SAMEA3302693 male   Abkhasian "West Eurasia "          43      41  
    ##  3 HGDP01401 SAMEA3302728 female Adygei    "West Eurasia "          44      39  
    ##  4 HGDP01402 SAMEA3302656 male   Adygei    "West Eurasia "          44      39  
    ##  5 ALB212    SAMEA3302780 female Albanian  "West Eurasia "          41.3    19.8
    ##  6 Ale20     SAMEA3302642 female Aleut     "Central Asia and Si…    55.2   166  
    ##  7 Ale22     SAMEA3302773 male   Aleut     "Central Asia and Si…    55.2   166  
    ##  8 altai363p SAMEA3302753 male   Altaian   "Central Asia and Si…    51.9    86  
    ##  9 NA13607   SAMEA3302722 male   Ami       "East Asia "             22.8   121. 
    ## 10 NA13616   SAMEA3302623 male   Ami       "East Asia "             22.8   121. 
    ## # … with 266 more rows, and abbreviated variable names ¹​latitude, ²​longitude
…
