…
``` r
HGDP_nobiased_samples <- filter(a_HGDP, (a > (-0.5)) & (a<0.5)) %>% select(ID) %>% pull()
HGDP_clean <- filter(HGDP, ID %in% HGDP_nobiased_samples)
```

``` r
(by_pop <- group_by(HGDP, pop, country, familyname, sex, lat, long) %>% dplyr::summarise(sd=sd(gc_copynumber), copynumber = mean(gc_copynumber), count=n()))
```

    ## `summarise()` has grouped output by 'pop', 'country', 'familyname', 'sex',
    ## 'lat'. You can override using the `.groups` argument.

    ## # A tibble: 94,570 × 9
    ## # Groups:   pop, country, familyname, sex, lat [94,570]
    ##    pop    country familyname sex      lat  long        sd copynumber count
    ##    <chr>  <chr>   <chr>      <chr>  <dbl> <dbl>     <dbl>      <dbl> <int>
    ##  1 Adygei Europe  6kbHsap    female    44    39   35.3       315.        9
    ##  2 Adygei Europe  6kbHsap    male      44    39   50.5       319.        6
    ##  3 Adygei Europe  ALINE      female    44    39    0.0220      0.141     9
    ##  4 Adygei Europe  ALINE      male      44    39    0.0160      0.118     6
    ##  5 Adygei Europe  ALR        female    44    39 2507.      31855.        9
    ##  6 Adygei Europe  ALR        male      44    39 5683.      31197.        6
    ##  7 Adygei Europe  ALR1       female    44    39 3958.      70715.        9
    ##  8 Adygei Europe  ALR1       male      44    39 9852.      70352.        6
    ##  9 Adygei Europe  ALR2       female    44    39   77.8      2081.        9
    ## 10 Adygei Europe  ALR2       male      44    39  157.       2085.        6
    ## # ℹ 94,560 more rows

``` r
(by_pop_unbiased <- group_by(HGDP_clean, pop, country, familyname, sex, lat, long) %>% dplyr::summarise(sd=sd(gc_copynumber), copynumber = mean(gc_copynumber), count=n()))
```

    ## `summarise()` has grouped output by 'pop', 'country', 'familyname', 'sex',
    ## 'lat'. You can override using the `.groups` argument.

    ## # A tibble: 88,780 × 9
    ## # Groups:   pop, country, familyname, sex, lat [88,780]
    ##    pop    country familyname sex      lat  long        sd copynumber count
    ##    <chr>  <chr>   <chr>      <chr>  <dbl> <dbl>     <dbl>      <dbl> <int>
    ##  1 Adygei Europe  6kbHsap    female    44    39   37.1       317.        8
    ##  2 Adygei Europe  6kbHsap    male      44    39   68.9       330.        3
    ##  3 Adygei Europe  ALINE      female    44    39    0.0236      0.141     8
    ##  4 Adygei Europe  ALINE      male      44    39    0           0.13      3
    ##  5 Adygei Europe  ALR        female    44    39 2680.      31859.        8
    ##  6 Adygei Europe  ALR        male      44    39 4915.      29955.        3
    ##  7 Adygei Europe  ALR1       female    44    39 4228.      70661.        8
    ##  8 Adygei Europe  ALR1       male      44    39 6804.      67942.        3
    ##  9 Adygei Europe  ALR2       female    44    39   71.5      2094.        8
    ## 10 Adygei Europe  ALR2       male      44    39   91.6      1965.        3
    ## # ℹ 88,770 more rows
…
