…
    ## # A tibble: 5 × 4
    ##   familyname class cn_rank cv_rank
    ##   <chr>      <chr>   <int>   <int>
    ## 1 ALU        SINE        1       1
    ## 2 L1HS       LINE       17      15
    ## 3 SVA_A      SINE       14      48
    ## 4 L1PA2      LINE       80      53
    ## 5 HERV-K14CI LTR       482     183

``` r
(rank_diff <- rank %>% mutate(rank_increase = cn_rank-cv_rank) %>% filter(mean>10) %>% arrange(desc(rank_increase)))
```

    ## # A tibble: 482 × 9
    ##    familyname class superfamily            mean    var     cv cn_rank cv_rank
    ##    <chr>      <chr> <chr>                 <dbl>  <dbl>  <dbl>   <int>   <int>
    ##  1 HERV-K14CI LTR   ERV2                   10.0  1.38  0.137      482     183
    ##  2 LTR25      LTR   ERV1                   19.5  3.43  0.176      401     153
    ##  3 LTR21A     LTR   ERV1                   19.2  1.50  0.0781     403     261
    ##  4 MER4BI     LTR   Endogenous Retrovirus  31.2  4.12  0.132      329     192
    ##  5 MER6C      DNA   Mariner/Tc1            11.4  0.505 0.0444     470     342
    ##  6 L1MDB_5    LINE  L1                     16.3  0.914 0.0560     429     302
    ##  7 LTR22      LTR   ERV2                   51.2 12.9   0.253      254     128
    ##  8 HERV30I    LTR   Endogenous Retrovirus  10.4  0.435 0.0416     477     352
    ##  9 HERVFH21I  LTR   Endogenous Retrovirus  14.4  0.758 0.0525     440     316
    ## 10 LTR06      LTR   ERV1                   12.4  0.516 0.0418     460     350
    ## # ℹ 472 more rows
    ## # ℹ 1 more variable: rank_increase <int>
…
