…
``` r
cn <- classification %>% filter(type=="te") %>% group_by(familyname, sex, class, superfamily) %>% summarise(mean = mean(copynumber)) %>% filter(mean>1)
```

    ## `summarise()` has grouped output by 'familyname', 'sex', 'class'. You can
    ## override using the `.groups` argument.

``` r
new_tibble <- tidyr::spread(cn, key = sex, value = mean)
colnames(new_tibble) <- c("familyname", "class", "superfamily", "female_cn", "male_cn")

(different_fem <- new_tibble %>% mutate(diff = abs(female_cn-male_cn)) %>% filter(diff > ((female_cn/100)*3.2), diff>1) %>% arrange(desc(diff)))
```

    ## # A tibble: 125 × 6
    ## # Groups:   familyname, class [125]
    ##    familyname class     superfamily female_cn male_cn   diff
    ##    <chr>      <chr>     <chr>           <dbl>   <dbl>  <dbl>
    ##  1 HSATI      satellite SAT              341.   2122. 1781. 
    ##  2 HSATII     satellite SAT            28262.  27132. 1130. 
    ##  3 THE1_I     LTR       ERV3            4436.   4273.  164. 
    ##  4 L1PA4      LINE      L1              4347.   4195.  152. 
    ##  5 L1PA7_5    LINE      L1              1945.   1853.   91.4
    ##  6 L1PREC1    LINE      L1              2216.   2129.   86.6
    ##  7 L1PA16     LINE      L1              2205.   2131.   73.9
    ##  8 L1PB2c     LINE      L1              1487.   1424.   62.3
    ##  9 L1PA7      LINE      L1              1806.   1747.   58.8
    ## 10 L1PB1      LINE      L1              1303.   1251.   52.7
    ## # ℹ 115 more rows

``` r
(different_mal <- new_tibble %>% mutate(diff = abs(female_cn-male_cn)) %>% filter(diff > ((male_cn/100)*1.6), diff>1) %>% arrange(desc(diff)))
```

    ## # A tibble: 256 × 6
    ## # Groups:   familyname, class [256]
    ##    familyname class     superfamily female_cn male_cn   diff
    ##    <chr>      <chr>     <chr>           <dbl>   <dbl>  <dbl>
    ##  1 ALU        SINE      SINE1/7SL     196091. 192089. 4002. 
    ##  2 HSATI      satellite SAT              341.   2122. 1781. 
    ##  3 HSATII     satellite SAT            28262.  27132. 1130. 
    ##  4 THE1_I     LTR       ERV3            4436.   4273.  164. 
    ##  5 THE1B      LTR       ERV3            6287.   6134.  153. 
    ##  6 L1PA4      LINE      L1              4347.   4195.  152. 
    ##  7 L1         LINE      L1              3661.   3551.  110. 
    ##  8 THE1C      LTR       ERV3            3423.   3330.   93.7
    ##  9 L1PA7_5    LINE      L1              1945.   1853.   91.4
    ## 10 L1PREC1    LINE      L1              2216.   2129.   86.6
    ## # ℹ 246 more rows
…
``` r
(more_in_females <- different_fem %>% filter(male_cn<female_cn) %>% ungroup())
```

    ## # A tibble: 117 × 6
    ##    familyname class     superfamily female_cn male_cn   diff
    ##    <chr>      <chr>     <chr>           <dbl>   <dbl>  <dbl>
    ##  1 HSATII     satellite SAT            28262.  27132. 1130. 
    ##  2 THE1_I     LTR       ERV3            4436.   4273.  164. 
    ##  3 L1PA4      LINE      L1              4347.   4195.  152. 
    ##  4 L1PA7_5    LINE      L1              1945.   1853.   91.4
    ##  5 L1PREC1    LINE      L1              2216.   2129.   86.6
    ##  6 L1PA16     LINE      L1              2205.   2131.   73.9
    ##  7 L1PB2c     LINE      L1              1487.   1424.   62.3
    ##  8 L1PA7      LINE      L1              1806.   1747.   58.8
    ##  9 L1PB1      LINE      L1              1303.   1251.   52.7
    ## 10 L1PREC2    LINE      L1              1007.    956.   51.2
    ## # ℹ 107 more rows
…
    ## `summarise()` has grouped output by 'familyname', 'sex', 'class'. You can
    ## override using the `.groups` argument.

``` r
continents <- c("Africa", "Middle_East", "Central_South_Asia", "East_Asia", "Europe", "America", "Oceania")
latitudes <- c(0, 30, 20, 35, 50, -10, -25)
longitudes <- c(20, 45, 70, 105, 15, -60, 135)
coordinates_con <- tibble(country = continents, lat = latitudes, long = longitudes)

spreaded_m <- tidyr::spread(mim, key = sex, value = mean) %>% na.omit()
colnames(spreaded_m) <- c("familyname", "class", "country", "female_cn", "male_cn")
(diff_m <- spreaded_m %>% mutate(avg_cn=(male_cn+female_cn)/2, diff=male_cn-female_cn, fold_diff=diff/avg_cn) %>% select(-female_cn, -male_cn) %>% arrange(desc(fold_diff)) %>% inner_join(coordinates_con, by="country"))
```

    ## # A tibble: 49 × 8
    ## # Groups:   familyname, class [7]
    ##    familyname class country            avg_cn  diff fold_diff   lat  long
    ##    <chr>      <chr> <chr>               <dbl> <dbl>     <dbl> <dbl> <dbl>
    ##  1 HERV-K14CI LTR   Oceania              9.60  2.68     0.279   -25   135
    ##  2 HERV-K14CI LTR   America              9.29  2.19     0.236   -10   -60
    ##  3 HERV-K14CI LTR   Central_South_Asia   9.75  2.27     0.233    20    70
    ##  4 HERV-K14CI LTR   Africa               9.69  2.21     0.228     0    20
    ##  5 HERV-K14CI LTR   Europe               9.97  2.26     0.227    50    15
    ##  6 HERV-K14CI LTR   East_Asia            9.88  2.20     0.222    35   105
    ##  7 HERV-K14CI LTR   Middle_East          9.59  2.02     0.211    30    45
    ##  8 LTR22      LTR   Oceania             49.0   8.20     0.167   -25   135
    ##  9 LTR14C     LTR   Oceania             70.9  10.9      0.154   -25   135
    ## 10 HERV30I    LTR   Oceania             10.3   1.49     0.145   -25   135
    ## # ℹ 39 more rows

``` r
spreaded_f <- tidyr::spread(mif, key = sex, value = mean) %>% na.omit()
(diff_f <- spreaded_f %>% mutate(avg_cn=(male+female)/2, diff=female-male, fold_diff=diff/avg_cn) %>% select(-female, -male) %>% arrange(desc(fold_diff)) %>% inner_join(coordinates_con, by="country"))
```

    ## # A tibble: 798 × 8
    ## # Groups:   familyname, class [114]
    ##    familyname class country            avg_cn  diff fold_diff   lat  long
    ##    <chr>      <chr> <chr>               <dbl> <dbl>     <dbl> <dbl> <dbl>
    ##  1 HERV46I    LTR   Middle_East          6.77  1.91     0.282    30    45
    ##  2 HERV46I    LTR   Africa               6.87  1.90     0.277     0    20
    ##  3 HERV46I    LTR   America              6.51  1.77     0.272   -10   -60
    ##  4 HERV46I    LTR   Central_South_Asia   6.86  1.80     0.262    20    70
    ##  5 HERV46I    LTR   East_Asia            6.98  1.83     0.262    35   105
    ##  6 HERV46I    LTR   Europe               6.90  1.73     0.251    50    15
    ##  7 HERV46I    LTR   Oceania              6.67  1.42     0.213   -25   135
    ##  8 LTR25      LTR   Middle_East         19.5   3.98     0.204    30    45
    ##  9 LTR25      LTR   Africa              19.9   3.88     0.195     0    20
    ## 10 LTR25      LTR   America             19.0   3.69     0.194   -10   -60
    ## # ℹ 788 more rows
…
