…
``` r
HGDP_nobiased_samples <- filter(a_HGDP, (a > (-0.5)) & (a<0.5)) %>% select(ID) %>% pull()
HGDP_nobiasedID <- filter(HGDP, ID %in% HGDP_nobiased_samples)
(HGDP_clean <- filter(HGDP_pcr_free, ID %in% HGDP_nobiased_samples, type=="te"))
```

    ## # A tibble: 632,075 × 12
    ##    ID      pop   sex   country type  famil…¹ length  reads copyn…² batch super…³
    ##    <chr>   <chr> <chr> <chr>   <chr> <chr>    <dbl>  <dbl>   <dbl> <chr> <chr>  
    ##  1 HGDP00… Brah… male  Centra… te    LTR65      669 1.37e3 6.57e+0 ro    ERV1   
    ##  2 HGDP00… Brah… male  Centra… te    HERVK3I   7242 4.56e4 2.02e+1 ro    ERV2   
    ##  3 HGDP00… Brah… male  Centra… te    HERV9     8399 3.60e5 1.38e+2 ro    ERV1   
    ##  4 HGDP00… Brah… male  Centra… te    L1PA12…   3072 7.44e4 7.77e+1 ro    L1     
    ##  5 HGDP00… Brah… male  Centra… te    LTR27C     767 3.78e3 1.58e+1 ro    ERV1   
    ##  6 HGDP00… Brah… male  Centra… te    LTR16A1    457 4.76e2 3.35e+0 ro    ERV3   
    ##  7 HGDP00… Brah… male  Centra… te    Tigger…    933 1.38e1 4.76e-2 ro    Marine…
    ##  8 HGDP00… Brah… male  Centra… te    LTR23      437 1.03e4 7.54e+1 ro    ERV1   
    ##  9 HGDP00… Brah… male  Centra… te    X32_DNA    336 3.93e1 3.76e-1 ro    Marine…
    ## 10 HGDP00… Brah… male  Centra… te    LTR53      519 1.72e3 1.06e+1 ro    ERV3   
    ## # … with 632,065 more rows, 1 more variable: shared_with <chr>, and abbreviated
    ## #   variable names ¹​familyname, ²​copynumber, ³​superfamily
…
