…
``` r
two_n <- bind_rows(a, specific_v)

names_nea <- two_n %>% select(SNP)
(specific_d <- names_denis %>% filter(!(SNP %in% names_nea$SNP)) %>% inner_join(d, by="SNP") %>% distinct())
```

    ## Warning in inner_join(., d, by = "SNP"): Detected an unexpected many-to-many relationship between `x` and `y`.
    ## ℹ Row 144 of `x` matches multiple rows in `y`.
    ## ℹ Row 203 of `y` matches multiple rows in `x`.
    ## ℹ If a many-to-many relationship is expected, set `relationship =
    ##   "many-to-many"` to silence this warning.

    ## # A tibble: 596 × 833
    ##    SNP            familyname position `HGDP00001-Brahui` `HGDP00003-Brahui`
    ##    <chr>          <chr>         <dbl>              <dbl>              <dbl>
    ##  1 HERVK3I_te_149 HERVK3I_te      149             0                       0
    ##  2 HERV9_te_5870  HERV9_te       5870             0                       0
    ##  3 HERV9_te_6860  HERV9_te       6860             0                       0
    ##  4 LTR27C_te_619  LTR27C_te       619             0.0417                  0
    ##  5 LOR1I_te_41    LOR1I_te         41             0                       0
    ##  6 LOR1I_te_7542  LOR1I_te       7542             0                       0
    ##  7 LOR1I_te_8079  LOR1I_te       8079             0                       0
    ##  8 L1MA2_te_11    L1MA2_te         11             0                       0
    ##  9 L1MA2_te_17    L1MA2_te         17             0                       0
    ## 10 L1MA2_te_97    L1MA2_te         97             0                       0
    ## # ℹ 586 more rows
    ## # ℹ 828 more variables: `HGDP00005-Brahui` <dbl>, `HGDP00007-Brahui` <dbl>,
    ## #   `HGDP00009-Brahui` <dbl>, `HGDP00011-Brahui` <dbl>,
    ## #   `HGDP00013-Brahui` <dbl>, `HGDP00015-Brahui` <dbl>,
    ## #   `HGDP00017-Brahui` <dbl>, `HGDP00021-Brahui` <dbl>,
    ## #   `HGDP00023-Brahui` <dbl>, `HGDP00025-Brahui` <dbl>,
    ## #   `HGDP00029-Brahui` <dbl>, `HGDP00031-Brahui` <dbl>, …

``` r
(specific_n <- names_nea %>% filter(!(SNP %in% names_denis$SNP)) %>% inner_join(two_n, by="SNP") %>% distinct())
```

    ## Warning in inner_join(., two_n, by = "SNP"): Detected an unexpected many-to-many relationship between `x` and `y`.
    ## ℹ Row 334 of `x` matches multiple rows in `y`.
    ## ℹ Row 427 of `y` matches multiple rows in `x`.
    ## ℹ If a many-to-many relationship is expected, set `relationship =
    ##   "many-to-many"` to silence this warning.

    ## # A tibble: 3,653 × 833
    ##    SNP              familyname  position `HGDP00001-Brahui` `HGDP00003-Brahui`
    ##    <chr>            <chr>          <dbl>              <dbl>              <dbl>
    ##  1 LTR65_te_79      LTR65_te          79             0                 0      
    ##  2 HERVK3I_te_5706  HERVK3I_te      5706             0                 0.0537 
    ##  3 HERVK3I_te_6199  HERVK3I_te      6199             0                 0      
    ##  4 HERVK3I_te_6716  HERVK3I_te      6716             0                 0.00107
    ##  5 HERV9_te_6744    HERV9_te        6744             0.0088            0.00691
    ##  6 L1PA12_5_te_910  L1PA12_5_te      910             0                 0      
    ##  7 L1PA12_5_te_1036 L1PA12_5_te     1036             0                 0      
    ##  8 L1PA12_5_te_1037 L1PA12_5_te     1037             0                 0      
    ##  9 L1PA12_5_te_1039 L1PA12_5_te     1039             0                 0      
    ## 10 L1PA12_5_te_1138 L1PA12_5_te     1138             0                 0      
    ## # ℹ 3,643 more rows
    ## # ℹ 828 more variables: `HGDP00005-Brahui` <dbl>, `HGDP00007-Brahui` <dbl>,
    ## #   `HGDP00009-Brahui` <dbl>, `HGDP00011-Brahui` <dbl>,
    ## #   `HGDP00013-Brahui` <dbl>, `HGDP00015-Brahui` <dbl>,
    ## #   `HGDP00017-Brahui` <dbl>, `HGDP00021-Brahui` <dbl>,
    ## #   `HGDP00023-Brahui` <dbl>, `HGDP00025-Brahui` <dbl>,
    ## #   `HGDP00029-Brahui` <dbl>, `HGDP00031-Brahui` <dbl>, …
…
