…
Then, I calculate the **mean copynumber** of each TE for every continent
(`country`).

``` r
(continents <- by_pop %>% group_by(country, familyname, type, sex) %>% mutate(country = replace(country, country == 'Central_South_Asia', 'Eurasia')) %>% mutate(country = replace(country, country == 'East_Asia', 'Eurasia')) %>% mutate(country = replace(country, country == 'Middle_East', 'Eurasia')) %>% mutate(country = replace(country, country == 'Europe', 'Eurasia')) %>% dplyr::summarise(country_mean=mean(copynumber)) %>% arrange(familyname) %>% pivot_wider(names_from = country, values_from = country_mean) %>% full_join(classification, by="familyname") %>% distinct())
```

    ## `summarise()` has grouped output by 'country', 'familyname', 'type'. You can
    ## override using the `.groups` argument.

    ## # A tibble: 3,374 × 9
    ## # Groups:   familyname, type [1,687]
    ##    familyname     type  sex    Africa America Eurasia Oceania superfamily class 
    ##    <chr>          <chr> <chr>   <dbl>   <dbl>   <dbl>   <dbl> <chr>       <chr> 
    ##  1 6kbHsap        te    female 351.   323.     328.    335.   satellite   satel…
    ##  2 6kbHsap        te    male   371.   344.     333.    317.   satellite   satel…
    ##  3 a_AC067968.1_2 krab  female   1.54   1.48     1.58    1.58 <NA>        <NA>  
    ##  4 a_AC067968.1_2 krab  male     1.59   1.59     1.58    1.62 <NA>        <NA>  
    ##  5 a_AC092835.1_5 krab  female   1.87   1.67     1.79    1.84 <NA>        <NA>  
    ##  6 a_AC092835.1_5 krab  male     1.82   1.73     1.80    1.80 <NA>        <NA>  
    ##  7 a_CDK8_20      krab  female   2.01   1.92     2.10    2.06 <NA>        <NA>  
    ##  8 a_CDK8_20      krab  male     2.06   2.05     2.08    2.06 <NA>        <NA>  
    ##  9 a_CHD3_3       krab  female   1.03   0.997    1.02    1.03 <NA>        <NA>  
    ## 10 a_CHD3_3       krab  male     1.07   1.03     1.02    1.04 <NA>        <NA>  
    ## # … with 3,364 more rows
…
#pie_chart_less_in(variant, "class", "LTR")
#chi_least(variant, "class", "LTR")
```

# Split eurasians

``` r
(splitted <- by_pop %>% group_by(country, familyname, type, sex) %>% dplyr::summarise(country_mean=mean(copynumber)) %>% arrange(familyname) %>% pivot_wider(names_from = country, values_from = country_mean) %>% full_join(classification, by="familyname") %>% distinct())
```

    ## `summarise()` has grouped output by 'country', 'familyname', 'type'. You can
    ## override using the `.groups` argument.

    ## # A tibble: 3,374 × 12
    ## # Groups:   familyname, type [1,687]
    ##    familyname  type  sex   Africa America Centr…¹ East_…² Europe Middl…³ Oceania
    ##    <chr>       <chr> <chr>  <dbl>   <dbl>   <dbl>   <dbl>  <dbl>   <dbl>   <dbl>
    ##  1 6kbHsap     te    fema… 351.   323.    316.     333.   332.   322.     335.  
    ##  2 6kbHsap     te    male  371.   344.    331.     332.   336.   333.     317.  
    ##  3 a_AC067968… krab  fema…   1.54   1.48    1.55     1.57   1.64   1.56     1.58
    ##  4 a_AC067968… krab  male    1.59   1.59    1.58     1.57   1.62   1.52     1.62
    ##  5 a_AC092835… krab  fema…   1.87   1.67    1.79     1.80   1.81   1.73     1.84
    ##  6 a_AC092835… krab  male    1.82   1.73    1.80     1.79   1.82   1.75     1.80
    ##  7 a_CDK8_20   krab  fema…   2.01   1.92    2.12     2.10   2.11   2.00     2.06
    ##  8 a_CDK8_20   krab  male    2.06   2.05    2.08     2.09   2.11   1.98     2.06
    ##  9 a_CHD3_3    krab  fema…   1.03   0.997   0.990    1.03   1.01   1.01     1.03
    ## 10 a_CHD3_3    krab  male    1.07   1.03    1.02     1.02   1.04   0.992    1.04
    ## # … with 3,364 more rows, 2 more variables: superfamily <chr>, class <chr>, and
    ## #   abbreviated variable names ¹​Central_South_Asia, ²​East_Asia, ³​Middle_East
…
## By population

To try to increase the resolution of our analysis, I performed the same
test but instead of calculating the mean for each Continent, I did that
for each population.

``` r
(populations <- by_pop %>% group_by(pop, familyname, type, sex) %>% dplyr::summarise(pop_mean=mean(copynumber)) %>% arrange(familyname) %>% pivot_wider(names_from = pop, values_from = pop_mean) %>% full_join(classification, by="familyname") %>% distinct() %>% dplyr::rename(TE_type = class))
```

    ## `summarise()` has grouped output by 'pop', 'familyname', 'type'. You can
    ## override using the `.groups` argument.

    ## # A tibble: 3,374 × 59
    ## # Groups:   familyname, type [1,687]
    ##    familyn…¹ type  sex    Adygei Balochi Bantu…² Bantu…³  Basque Bedouin Berga…⁴
    ##    <chr>     <chr> <chr>   <dbl>   <dbl>   <dbl>   <dbl>   <dbl>   <dbl>   <dbl>
    ##  1 6kbHsap   te    fema… 354.      NA      NA      NA    295.    326.     362.  
    ##  2 6kbHsap   te    male  353.     334.    360.    379.   320.    346.     328.  
    ##  3 a_AC0679… krab  fema…   1.66    NA      NA      NA      1.59    1.50     1.62
    ##  4 a_AC0679… krab  male    1.56     1.64    1.67    1.59   1.56    1.50     1.66
    ##  5 a_AC0928… krab  fema…   1.81    NA      NA      NA      1.75    1.70     1.82
    ##  6 a_AC0928… krab  male    1.79     1.81    1.81    1.80   1.74    1.73     1.83
    ##  7 a_CDK8_20 krab  fema…   2.22    NA      NA      NA      2.05    1.96     2.15
    ##  8 a_CDK8_20 krab  male    2.12     2.14    2.13    2.13   2.01    1.96     2.22
    ##  9 a_CHD3_3  krab  fema…   0.987   NA      NA      NA      1.04    1.03     1.00
    ## 10 a_CHD3_3  krab  male    1.03     1.03    1.05    1.13   0.983   0.996    1.07
    ## # … with 3,364 more rows, 49 more variables: Biaka <dbl>, Bougainville <dbl>,
    ## #   Brahui <dbl>, Burusho <dbl>, Cambodian <dbl>, Colombian <dbl>, Dai <dbl>,
    ## #   Daur <dbl>, Druze <dbl>, French <dbl>, Han <dbl>, Hazara <dbl>,
    ## #   Hezhen <dbl>, Japanese <dbl>, Kalash <dbl>, Karitiana <dbl>, Lahu <dbl>,
    ## #   Makrani <dbl>, Mandenka <dbl>, Maya <dbl>, Mbuti <dbl>, Miao <dbl>,
    ## #   Mongolian <dbl>, Mozabite <dbl>, Naxi <dbl>, NorthernHan <dbl>,
    ## #   Orcadian <dbl>, Oroqen <dbl>, Palestinian <dbl>, PapuanHighlands <dbl>, …
…
(leastmost_bypop <- read_csv("/Volumes/Temp1/rpianezza/TE/general-analysis-by-pop/most.csv", col_names = c("pop", "families", "sex", "class", "most_or_least")) %>% inner_join(regions, by="pop"))
```

    ## Rows: 864 Columns: 5
    ## ── Column specification ────────────────────────────────────────────────────────
    ## Delimiter: ","
    ## chr (4): pop, sex, class, most_or_least
    ## dbl (1): families
    ## 
    ## ℹ Use `spec()` to retrieve the full column specification for this data.
    ## ℹ Specify the column types or set `show_col_types = FALSE` to quiet this message.

    ## # A tibble: 864 × 6
    ##    pop              families sex    class most_or_least country           
    ##    <chr>               <dbl> <chr>  <chr> <chr>         <chr>             
    ##  1 Adygei                107 female all   most          Europe            
    ##  2 Balochi                 0 female all   most          Central_South_Asia
    ##  3 BantuKenya              0 female all   most          Africa            
    ##  4 BantuSouthAfrica        0 female all   most          Africa            
    ##  5 Basque                  0 female all   most          Europe            
    ##  6 Bedouin                 0 female all   most          Middle_East       
    ##  7 BergamoItalian          1 female all   most          Europe            
    ##  8 Biaka                   0 female all   most          Africa            
    ##  9 Bougainville            1 female all   most          Oceania           
    ## 10 Brahui                  0 female all   most          Central_South_Asia
    ## # … with 854 more rows
…
