…
``` r
cn <- classification %>% filter(type=="te") %>% group_by(familyname, sex, class, superfamily) %>% summarise(mean = mean(copynumber)) %>% filter(mean>1) #%>% filter(mean < 1000)
```

    ## `summarise()` has grouped output by 'familyname', 'sex', 'class'. You can
    ## override using the `.groups` argument.

``` r
(new_tibble <- tidyr::spread(cn, key = sex, value = mean))
```

    ## # A tibble: 714 × 5
    ## # Groups:   familyname, class [714]
    ##    familyname class     superfamily    female      male
    ##    <chr>      <chr>     <chr>           <dbl>     <dbl>
    ##  1 6kbHsap    satellite satellite      299.      302.  
    ##  2 ALR        satellite SAT          31525.    31812.  
    ##  3 ALR_       satellite SAT          77235.    76912.  
    ##  4 ALR1       satellite SAT          70870.    71586.  
    ##  5 ALR2       satellite SAT           2087.     2057.  
    ##  6 ALRa       satellite SAT            371.      361.  
    ##  7 ALRa_      satellite SAT           1776.     1750.  
    ##  8 ALRb       satellite SAT          28610.    28660.  
    ##  9 ALU        SINE      SINE1/7SL   196091.   192089.  
    ## 10 BLACKJACK  DNA       hAT              2.00      1.92
    ## # ℹ 704 more rows

``` r
colnames(new_tibble) <- c("familyname", "class", "superfamily", "female_cn", "male_cn")

(different_fem <- new_tibble %>% mutate(mean_cn = (female_cn+male_cn)/2, diff = abs(female_cn-male_cn)) %>% filter(diff > ((mean_cn/100)*3.2), diff>1) %>% arrange(desc(diff)))
```

    ## # A tibble: 128 × 7
    ## # Groups:   familyname, class [128]
    ##    familyname class     superfamily female_cn male_cn mean_cn   diff
    ##    <chr>      <chr>     <chr>           <dbl>   <dbl>   <dbl>  <dbl>
    ##  1 HSATI      satellite SAT              341.   2122.   1232. 1781. 
    ##  2 HSATII     satellite SAT            28262.  27132.  27697. 1130. 
    ##  3 THE1_I     LTR       ERV3            4436.   4273.   4355.  164. 
    ##  4 L1PA4      LINE      L1              4347.   4195.   4271.  152. 
    ##  5 L1PA7_5    LINE      L1              1945.   1853.   1899.   91.4
    ##  6 L1PREC1    LINE      L1              2216.   2129.   2172.   86.6
    ##  7 L1PA16     LINE      L1              2205.   2131.   2168.   73.9
    ##  8 L1PB2c     LINE      L1              1487.   1424.   1456.   62.3
    ##  9 L1PA7      LINE      L1              1806.   1747.   1777.   58.8
    ## 10 L1PB1      LINE      L1              1303.   1251.   1277.   52.7
    ## # ℹ 118 more rows

``` r
(different_mal <- new_tibble %>% mutate(mean_cn = (female_cn+male_cn)/2, diff = abs(female_cn-male_cn)) %>% filter(diff>1) %>% arrange(desc(diff)))
```

    ## # A tibble: 291 × 7
    ## # Groups:   familyname, class [291]
    ##    familyname class     superfamily female_cn male_cn mean_cn  diff
    ##    <chr>      <chr>     <chr>           <dbl>   <dbl>   <dbl> <dbl>
    ##  1 ALU        SINE      SINE1/7SL     196091. 192089. 194090. 4002.
    ##  2 HSATI      satellite SAT              341.   2122.   1232. 1781.
    ##  3 HSATII     satellite SAT            28262.  27132.  27697. 1130.
    ##  4 ALR1       satellite SAT            70870.  71586.  71228.  716.
    ##  5 ALR_       satellite SAT            77235.  76912.  77073.  324.
    ##  6 ALR        satellite SAT            31525.  31812.  31669.  286.
    ##  7 THE1_I     LTR       ERV3            4436.   4273.   4355.  164.
    ##  8 THE1B      LTR       ERV3            6287.   6134.   6211.  153.
    ##  9 L1PA4      LINE      L1              4347.   4195.   4271.  152.
    ## 10 L1         LINE      L1              3661.   3551.   3606.  110.
    ## # ℹ 281 more rows
…
``` r
(more_in_females <- different_fem %>% filter(male_cn<female_cn))
```

    ## # A tibble: 120 × 7
    ## # Groups:   familyname, class [120]
    ##    familyname class     superfamily female_cn male_cn mean_cn   diff
    ##    <chr>      <chr>     <chr>           <dbl>   <dbl>   <dbl>  <dbl>
    ##  1 HSATII     satellite SAT            28262.  27132.  27697. 1130. 
    ##  2 THE1_I     LTR       ERV3            4436.   4273.   4355.  164. 
    ##  3 L1PA4      LINE      L1              4347.   4195.   4271.  152. 
    ##  4 L1PA7_5    LINE      L1              1945.   1853.   1899.   91.4
    ##  5 L1PREC1    LINE      L1              2216.   2129.   2172.   86.6
    ##  6 L1PA16     LINE      L1              2205.   2131.   2168.   73.9
    ##  7 L1PB2c     LINE      L1              1487.   1424.   1456.   62.3
    ##  8 L1PA7      LINE      L1              1806.   1747.   1777.   58.8
    ##  9 L1PB1      LINE      L1              1303.   1251.   1277.   52.7
    ## 10 L1PREC2    LINE      L1              1007.    956.    982.   51.2
    ## # ℹ 110 more rows
…
    ## Warning: Removed 660 rows containing non-finite values (`stat_boxplot()`).

``` r
(correlation <- classification %>% filter(type=="te", class!="satellite") %>% group_by(familyname, sex, class) %>% summarise(mean = mean(copynumber), cv = (var(copynumber))/mean, var = var(copynumber)) %>% ungroup() %>% group_by(familyname, class) %>% summarise(cn = mean(mean), cv = mean(cv), var=mean(var)))
```

    ## `summarise()` has grouped output by 'familyname', 'sex'. You can override using
    ## the `.groups` argument.
    ## `summarise()` has grouped output by 'familyname'. You can override using the
    ## `.groups` argument.

    ## # A tibble: 879 × 5
    ## # Groups:   familyname [879]
    ##    familyname  class         cn        cv     var
    ##    <chr>       <chr>      <dbl>     <dbl>   <dbl>
    ##  1 ALINE       LINE       0.134   0.00385 5.17e-4
    ##  2 ALU         SINE  194090.    145.      2.81e+7
    ##  3 AmnSINE1_HS SINE       0.438   0.0248  1.09e-2
    ##  4 BLACKJACK   DNA        1.96    0.00610 1.20e-2
    ##  5 CHARLIE1    DNA       15.3     0.0325  4.97e-1
    ##  6 CHARLIE10   DNA        2.03    0.00598 1.21e-2
    ##  7 CHARLIE1A   DNA        9.29    0.0167  1.56e-1
    ##  8 CHARLIE1B   DNA        3.50    0.0133  4.66e-2
    ##  9 CHARLIE2    DNA        0.212   0.00147 3.12e-4
    ## 10 CHARLIE2A   DNA        0.564   0.00244 1.38e-3
    ## # ℹ 869 more rows
…
# Most abundant

``` r
(most_ab <- classification %>% filter(type=="te") %>% group_by(familyname, class, superfamily) %>% summarise(mean = mean(copynumber)) %>% filter(!(class %in% c("satellite", NA)), mean>1) %>% filter(mean > 850) %>% arrange(desc(mean)))
```

    ## `summarise()` has grouped output by 'familyname', 'class'. You can override
    ## using the `.groups` argument.

    ## # A tibble: 30 × 4
    ## # Groups:   familyname, class [30]
    ##    familyname class superfamily    mean
    ##    <chr>      <chr> <chr>         <dbl>
    ##  1 ALU        SINE  SINE1/7SL   193629.
    ##  2 THE1B      LTR   ERV3          6193.
    ##  3 THE1_I     LTR   ERV3          4336.
    ##  4 L1PA4      LINE  L1            4254.
    ##  5 L1         LINE  L1            3594.
    ##  6 THE1C      LTR   ERV3          3366.
    ##  7 MSTA       LTR   ERV3          2937.
    ##  8 THE1A      LTR   ERV3          2756.
    ##  9 THE1D      LTR   ERV3          2706.
    ## 10 L1PREC1    LINE  L1            2162.
    ## # ℹ 20 more rows
…
