…
``` r
cn <- classification %>% filter(type=="te") %>% group_by(familyname, sex, class, superfamily) %>% summarise(mean = mean(copynumber)) %>% filter(mean>1) #%>% filter(mean < 1000)
```

    ## `summarise()` has grouped output by 'familyname', 'sex', 'class'. You can
    ## override using the `.groups` argument.

``` r
(new_tibble <- tidyr::spread(cn, key = sex, value = mean))
```

    ## # A tibble: 714 × 5
    ## # Groups:   familyname, class [714]
    ##    familyname class     superfamily    female      male
    ##    <chr>      <chr>     <chr>           <dbl>     <dbl>
    ##  1 6kbHsap    satellite satellite      299.      302.  
    ##  2 ALR        satellite SAT          31525.    31812.  
    ##  3 ALR_       satellite SAT          77235.    76912.  
    ##  4 ALR1       satellite SAT          70870.    71586.  
    ##  5 ALR2       satellite SAT           2087.     2057.  
    ##  6 ALRa       satellite SAT            371.      361.  
    ##  7 ALRa_      satellite SAT           1776.     1750.  
    ##  8 ALRb       satellite SAT          28610.    28660.  
    ##  9 ALU        SINE      SINE1/7SL   196091.   192089.  
    ## 10 BLACKJACK  DNA       hAT              2.00      1.92
    ## # ℹ 704 more rows

``` r
colnames(new_tibble) <- c("familyname", "class", "superfamily", "female_cn", "male_cn")

(different <- new_tibble %>% mutate(mean_cn = (female_cn+male_cn)/2, diff = abs(female_cn-male_cn)) %>% filter(diff > ((mean_cn/100)*3.2), diff>1) %>% arrange(desc(diff)))
```

    ## # A tibble: 128 × 7
    ## # Groups:   familyname, class [128]
    ##    familyname class     superfamily female_cn male_cn mean_cn   diff
    ##    <chr>      <chr>     <chr>           <dbl>   <dbl>   <dbl>  <dbl>
    ##  1 HSATI      satellite SAT              341.   2122.   1232. 1781. 
    ##  2 HSATII     satellite SAT            28262.  27132.  27697. 1130. 
    ##  3 THE1_I     LTR       ERV3            4436.   4273.   4355.  164. 
    ##  4 L1PA4      LINE      L1              4347.   4195.   4271.  152. 
    ##  5 L1PA7_5    LINE      L1              1945.   1853.   1899.   91.4
    ##  6 L1PREC1    LINE      L1              2216.   2129.   2172.   86.6
    ##  7 L1PA16     LINE      L1              2205.   2131.   2168.   73.9
    ##  8 L1PB2c     LINE      L1              1487.   1424.   1456.   62.3
    ##  9 L1PA7      LINE      L1              1806.   1747.   1777.   58.8
    ## 10 L1PB1      LINE      L1              1303.   1251.   1277.   52.7
    ## # ℹ 118 more rows
…
``` r
(more_in_females <- different %>% filter(male_cn<female_cn))
```

    ## # A tibble: 120 × 7
    ## # Groups:   familyname, class [120]
    ##    familyname class     superfamily female_cn male_cn mean_cn   diff
    ##    <chr>      <chr>     <chr>           <dbl>   <dbl>   <dbl>  <dbl>
    ##  1 HSATII     satellite SAT            28262.  27132.  27697. 1130. 
    ##  2 THE1_I     LTR       ERV3            4436.   4273.   4355.  164. 
    ##  3 L1PA4      LINE      L1              4347.   4195.   4271.  152. 
    ##  4 L1PA7_5    LINE      L1              1945.   1853.   1899.   91.4
    ##  5 L1PREC1    LINE      L1              2216.   2129.   2172.   86.6
    ##  6 L1PA16     LINE      L1              2205.   2131.   2168.   73.9
    ##  7 L1PB2c     LINE      L1              1487.   1424.   1456.   62.3
    ##  8 L1PA7      LINE      L1              1806.   1747.   1777.   58.8
    ##  9 L1PB1      LINE      L1              1303.   1251.   1277.   52.7
    ## 10 L1PREC2    LINE      L1              1007.    956.    982.   51.2
    ## # ℹ 110 more rows
…
``` r
(f_cn <- classification %>% filter(type=="te", sex=="female") %>% group_by(familyname, class, superfamily) %>% summarise(mean = mean(copynumber), var = var(copynumber), cv = var/mean) %>% arrange(desc(cv)) %>% filter(!(class %in% c("satellite", NA)), mean>1) %>% filter(cv > 1.62))
```

    ## `summarise()` has grouped output by 'familyname', 'class'. You can override
    ## using the `.groups` argument.

    ## # A tibble: 30 × 6
    ## # Groups:   familyname, class [30]
    ##    familyname class superfamily    mean       var     cv
    ##    <chr>      <chr> <chr>         <dbl>     <dbl>  <dbl>
    ##  1 ALU        SINE  SINE1/7SL   196091. 29865070. 152.  
    ##  2 THE1B      LTR   ERV3          6287.    61307.   9.75
    ##  3 L1PA4      LINE  L1            4347.    41456.   9.54
    ##  4 L1         LINE  L1            3661.    27735.   7.58
    ##  5 L1PREC1    LINE  L1            2216.    13149.   5.93
    ##  6 THE1C      LTR   ERV3          3423.    18428.   5.38
    ##  7 L1PA16     LINE  L1            2205.    11478.   5.20
    ##  8 L1PA6      LINE  L1            2120.    10417.   4.91
    ##  9 THE1A      LTR   ERV3          2792.    13475.   4.83
    ## 10 THE1D      LTR   ERV3          2753.    13041.   4.74
    ## # ℹ 20 more rows
…
``` r
(m_cn <- classification %>% filter(type=="te", sex=="male") %>% group_by(familyname, class, superfamily) %>% summarise(mean = mean(copynumber), var = var(copynumber), cv = var/mean) %>% arrange(desc(cv)) %>% filter(!(class %in% c("satellite", NA)), mean>1) %>% filter(cv > 1.05))
```

    ## `summarise()` has grouped output by 'familyname', 'class'. You can override
    ## using the `.groups` argument.

    ## # A tibble: 30 × 6
    ## # Groups:   familyname, class [30]
    ##    familyname class superfamily    mean       var     cv
    ##    <chr>      <chr> <chr>         <dbl>     <dbl>  <dbl>
    ##  1 ALU        SINE  SINE1/7SL   192089. 26394978. 137.  
    ##  2 L1PA4      LINE  L1            4195.    26884.   6.41
    ##  3 THE1B      LTR   ERV3          6134.    37824.   6.17
    ##  4 L1         LINE  L1            3551.    17032.   4.80
    ##  5 L1PREC1    LINE  L1            2129.     8038.   3.78
    ##  6 THE1_I     LTR   ERV3          4273.    15185.   3.55
    ##  7 L1PA16     LINE  L1            2131.     7356.   3.45
    ##  8 THE1C      LTR   ERV3          3330.    11242.   3.38
    ##  9 THE1D      LTR   ERV3          2676.     8149.   3.04
    ## 10 THE1A      LTR   ERV3          2733.     8302.   3.04
    ## # ℹ 20 more rows
…
