…
a_HGDP <- all_parabolas(HGDP)
a_SGDP <- all_parabolas(SGDP)

(joined_HGDP <- inner_join(HGDP, a_HGDP, by="ID") %>% filter(type=="te"))
```

    ## # A tibble: 799,020 × 11
    ##    ID        pop   sex   country type  familyname length  reads copynumber batch
    ##    <chr>     <chr> <chr> <chr>   <chr> <chr>       <dbl>  <dbl>      <dbl> <chr>
    ##  1 HGDP00001 Brah… male  Centra… te    LTR65         669 1.10e3     6.57   ro   
    ##  2 HGDP00001 Brah… male  Centra… te    HERVK3I      7242 3.89e4    21.5    ro   
    ##  3 HGDP00001 Brah… male  Centra… te    HERV9        8399 3.12e5   149.     ro   
    ##  4 HGDP00001 Brah… male  Centra… te    L1PA12_5     3072 6.41e4    83.6    ro   
    ##  5 HGDP00001 Brah… male  Centra… te    LTR27C        767 3.13e3    16.3    ro   
    ##  6 HGDP00001 Brah… male  Centra… te    LTR16A1       457 4.14e2     3.63   ro   
    ##  7 HGDP00001 Brah… male  Centra… te    Tigger16a     933 9.32e0     0.0401 ro   
    ##  8 HGDP00001 Brah… male  Centra… te    LTR23         437 7.70e3    70.6    ro   
    ##  9 HGDP00001 Brah… male  Centra… te    X32_DNA       336 4.38e1     0.522  ro   
    ## 10 HGDP00001 Brah… male  Centra… te    LTR53         519 1.36e3    10.5    ro   
    ## # ℹ 799,010 more rows
    ## # ℹ 1 more variable: a <dbl>
…
