…
``` r
HGDP_nobiased_samples <- filter(a_HGDP, (a > (-0.5)) & (a<0.5)) %>% select(ID) %>% pull()
HGDP_clean <- filter(HGDP, ID %in% HGDP_nobiased_samples)

DNA_names <- c("Crypton", "hAT", "Helitron", "Kolobok", "Mariner/Tc1", "Merlin", "MuDR", "piggyBac", "DNA transposon")
LINE_names <- c("L1", "CR1", "L2", "Crack", "RTE", "RTEX", "R4", "Vingi", "Tx1", "Penelope")
SINE_names <- c("SINE1/7SL", "SINE2/tRNA", "SINE3/5S", "SINE")
LTR_names <- c("ERV1", "ERV2", "ERV3", "Gypsy", "Endogenous Retrovirus", "LTR Retrotransposon", "Long terminal repeat", "Non-LTR Retrotransposon")
satellites_names <- c("Satellite", "satellite", "SAT")

(classification <- HGDP_clean %>% mutate(class = case_when(superfamily %in% DNA_names ~ "DNA", superfamily %in% LINE_names ~ "LINE", superfamily %in% SINE_names ~ "SINE", superfamily %in% LTR_names ~ "LTR", superfamily %in% satellites_names ~ "satellite")))
```

    ## # A tibble: 1,111,440 × 13
    ##    ID        pop    sex   country type  familyname length reads copynumber batch
    ##    <chr>     <chr>  <chr> <chr>   <chr> <chr>       <dbl> <dbl>      <dbl> <chr>
    ##  1 HGDP00003 Brahui male  Centra… scg   chr1:9168…   4152 1279.      0.989 ro   
    ##  2 HGDP00003 Brahui male  Centra… scg   chr1:9605…   5136 1700.      1.06  ro   
    ##  3 HGDP00003 Brahui male  Centra… scg   chr1:1203…   3064 1051.      1.10  ro   
    ##  4 HGDP00003 Brahui male  Centra… scg   chr1:1324…   3239 1096.      1.09  ro   
    ##  5 HGDP00003 Brahui male  Centra… scg   chr1:1331…   4035 1445.      1.15  ro   
    ##  6 HGDP00003 Brahui male  Centra… scg   chr1:1399…   2500  924.      1.19  ro   
    ##  7 HGDP00003 Brahui male  Centra… scg   chr1:1434…   2599  779.      0.963 ro   
    ##  8 HGDP00003 Brahui male  Centra… scg   chr1:1598…   2124  613.      0.926 ro   
    ##  9 HGDP00003 Brahui male  Centra… scg   chr1:2315…   6284 2020.      1.03  ro   
    ## 10 HGDP00003 Brahui male  Centra… scg   chr1:2629…   3222 1044.      1.04  ro   
    ## # ℹ 1,111,430 more rows
    ## # ℹ 3 more variables: superfamily <chr>, shared_with <chr>, class <chr>
…
    ## Warning: Returning more (or less) than 1 row per `summarise()` group was deprecated in
    ## dplyr 1.1.0.
    ## ℹ Please use `reframe()` instead.
    ## ℹ When switching from `summarise()` to `reframe()`, remember that `reframe()`
    ##   always returns an ungrouped data frame and adjust accordingly.
    ## Call `lifecycle::last_lifecycle_warnings()` to see where this warning was
    ## generated.

    ## `summarise()` has grouped output by 'pop', 'sex', 'country', 'individuals'. You
    ## can override using the `.groups` argument.

    ## # A tibble: 92 × 6
    ## # Groups:   pop, sex, country, individuals [92]
    ##    pop       sex    country            individuals mean_cv normalized_cv
    ##    <chr>     <chr>  <chr>                    <int>   <dbl>         <dbl>
    ##  1 Mandenka  female Africa                       2   0.398       0.199  
    ##  2 Oroqen    female East_Asia                    2   0.327       0.163  
    ##  3 Hezhen    female East_Asia                    3   0.240       0.0800 
    ##  4 Uygur     male   Central_South_Asia           4   0.197       0.0493 
    ##  5 Mozabite  female Middle_East                  8   0.179       0.0224 
    ##  6 Burusho   female Central_South_Asia           3   0.174       0.0579 
    ##  7 Biaka     male   Africa                       4   0.172       0.0431 
    ##  8 Cambodian male   East_Asia                    2   0.155       0.0775 
    ##  9 Druze     male   Middle_East                  8   0.151       0.0188 
    ## 10 Mozabite  male   Middle_East                 15   0.142       0.00948
    ## # ℹ 82 more rows
…
