…
``` r
#ggsave("/Volumes/Temp1/rpianezza/paper/figures/approach/library.png", pie, dpi=600)
```

``` r
(scg <- classification %>% filter(type=="scg") %>% group_by(familyname) %>% summarise(copynumber = mean(copynumber)))
```

    ## # A tibble: 483 × 2
    ##    familyname                copynumber
    ##    <chr>                          <dbl>
    ##  1 chr10:100746263-100749916      0.945
    ##  2 chr10:100987794-100989884      1.02 
    ##  3 chr10:101034691-101037167      1.00 
    ##  4 chr10:101226194-101229794      0.979
    ##  5 chr10:102065389-102068038      1.03 
    ##  6 chr10:102394109-102396298      0.963
    ##  7 chr10:11316832-11319884        1.02 
    ##  8 chr10:116670033-116672635      0.948
    ##  9 chr10:117239599-117241923      0.883
    ## 10 chr10:120899837-120903175      0.978
    ## # ℹ 473 more rows
…
