…
``` r
specific_v <- v %>% filter(!(SNP %in% a$SNP))
two_n <- bind_rows(a, specific_v)

(specific_d <- d %>% filter(!(SNP %in% two_n$SNP)))
```

    ## # A tibble: 601 × 278
    ##    SNP            mean_cn diagnostic `HGDP00151-Makrani` `HGDP00153-Makrani`
    ##    <chr>            <dbl> <chr>                    <dbl>               <dbl>
    ##  1 HERVK3I_te_149    20.9 G                         0                      0
    ##  2 HERV9_te_5870    134.  A                         0                      0
    ##  3 HERV9_te_6860    134.  A                         0                      0
    ##  4 HERV9_te_6989    134.  C                         0                      0
    ##  5 LTR27C_te_619     16.5 A                         0.03                   0
    ##  6 LOR1I_te_41       37.7 A                         0                      0
    ##  7 LOR1I_te_6801     37.7 A                         0                      0
    ##  8 LOR1I_te_7542     37.7 G                         0                      0
    ##  9 LOR1I_te_8079     37.7 C                         0                      0
    ## 10 L1MA2_te_11      452.  T                         0                      0
    ## # ℹ 591 more rows
    ## # ℹ 273 more variables: `HGDP00154-Makrani` <dbl>, `HGDP00155-Makrani` <dbl>,
    ## #   `HGDP00192-Sindhi` <dbl>, `HGDP00206-Sindhi` <dbl>,
    ## #   `HGDP00210-Sindhi` <dbl>, `HGDP00237-Pathan` <dbl>,
    ## #   `HGDP00239-Pathan` <dbl>, `HGDP00244-Pathan` <dbl>,
    ## #   `HGDP00247-Pathan` <dbl>, `HGDP00274-Kalash` <dbl>,
    ## #   `HGDP00298-Kalash` <dbl>, `HGDP00304-Kalash` <dbl>, …

``` r
(specific_n <- two_n %>% filter(!(SNP %in% d$SNP)))
```

    ## # A tibble: 3,600 × 278
    ##    SNP              mean_cn diagnostic `HGDP00151-Makrani` `HGDP00153-Makrani`
    ##    <chr>              <dbl> <chr>                    <dbl>               <dbl>
    ##  1 LTR65_te_79         7.02 C                            0                   0
    ##  2 HERVK3I_te_5706    20.9  G                            0                   0
    ##  3 HERVK3I_te_6199    20.9  G                            0                   0
    ##  4 HERVK3I_te_6716    20.9  A                            0                   0
    ##  5 HERV9_te_6744     134.   G                            0                   0
    ##  6 L1PA12_5_te_910    86.6  T                            0                   0
    ##  7 L1PA12_5_te_1036   86.6  C                            0                   0
    ##  8 L1PA12_5_te_1037   86.6  A                            0                   0
    ##  9 L1PA12_5_te_1039   86.6  G                            0                   0
    ## 10 L1PA12_5_te_1138   86.6  T                            0                   0
    ## # ℹ 3,590 more rows
    ## # ℹ 273 more variables: `HGDP00154-Makrani` <dbl>, `HGDP00155-Makrani` <dbl>,
    ## #   `HGDP00192-Sindhi` <dbl>, `HGDP00206-Sindhi` <dbl>,
    ## #   `HGDP00210-Sindhi` <dbl>, `HGDP00237-Pathan` <dbl>,
    ## #   `HGDP00239-Pathan` <dbl>, `HGDP00244-Pathan` <dbl>,
    ## #   `HGDP00247-Pathan` <dbl>, `HGDP00274-Kalash` <dbl>,
    ## #   `HGDP00298-Kalash` <dbl>, `HGDP00304-Kalash` <dbl>, …
…
``` r
(d_variants <- specific_d %>% mutate_at(vars(starts_with("HGDP")), ~. * mean_cn) %>% filter(mean_cn<100) %>% select(-c(diagnostic, mean_cn, SNP)) %>% dplyr::summarise_all(~sum(. >1, na.rm=TRUE)) %>% t %>% as.data.frame() %>% rownames_to_column(var = "ID") %>% as_tibble() %>% dplyr::rename("introgressed" = "V1") %>% separate(ID, into=c("ID", "pop"), sep="-", remove=FALSE) %>% select(-pop) %>% inner_join(HGDP_fem, by="ID"))
```

    ## # A tibble: 275 × 4
    ##    ID        introgressed pop     country           
    ##    <chr>            <int> <chr>   <chr>             
    ##  1 HGDP00151            0 Makrani Central_South_Asia
    ##  2 HGDP00153            2 Makrani Central_South_Asia
    ##  3 HGDP00154            3 Makrani Central_South_Asia
    ##  4 HGDP00155            1 Makrani Central_South_Asia
    ##  5 HGDP00192            2 Sindhi  Central_South_Asia
    ##  6 HGDP00206            0 Sindhi  Central_South_Asia
    ##  7 HGDP00210            2 Sindhi  Central_South_Asia
    ##  8 HGDP00237            0 Pathan  Central_South_Asia
    ##  9 HGDP00239            5 Pathan  Central_South_Asia
    ## 10 HGDP00244            1 Pathan  Central_South_Asia
    ## # ℹ 265 more rows
…
