…
HGDP_class <- full_join(HGDP, classification, by="familyname")

#write_tsv(HGDP_class, "/Volumes/Temp1/rpianezza/TE/summary-HGDP/HGDP_cutoff_classified.tsv", col_names = TRUE)

DNA_names <- c("Crypton", "hAT", "Helitron", "Kolobok", "Mariner/Tc1", "Merlin", "MuDR", "piggyBac", "DNA transposon")
LINE_names <- c("L1", "CR1", "L2", "Crack", "RTE", "RTEX", "R4", "Vingi", "Tx1", "Penelope")
SINE_names <- c("SINE1/7SL", "SINE2/tRNA", "SINE3/5S", "SINE")
LTR_names <- c("ERV1", "ERV2", "ERV3", "Gypsy", "Endogenous Retrovirus", "LTR Retrotransposon", "Long terminal repeat", "Non-LTR Retrotransposon")
satellites_names <- c("Satellite", "satellite", "SAT")

(classification <- HGDP_class %>% mutate(class = case_when(superfamily %in% DNA_names ~ "DNA", superfamily %in% LINE_names ~ "LINE", superfamily %in% SINE_names ~ "SINE", superfamily %in% LTR_names ~ "LTR", superfamily %in% satellites_names ~ "satellite")))
```

    ## # A tibble: 1,140,412 × 13
    ##    ID       pop   sex   country type  famil…¹ length reads copyn…² batch super…³
    ##    <chr>    <chr> <chr> <chr>   <chr> <chr>    <dbl> <dbl>   <dbl> <chr> <chr>  
    ##  1 HGDP000… Brah… male  Centra… scg   chr1:9…   4152 1279.   0.988 ro    <NA>   
    ##  2 HGDP000… Brah… male  Centra… scg   chr1:9…   5136 1704.   1.06  ro    <NA>   
    ##  3 HGDP000… Brah… male  Centra… scg   chr1:1…   3064 1051.   1.10  ro    <NA>   
    ##  4 HGDP000… Brah… male  Centra… scg   chr1:1…   3239 1096.   1.09  ro    <NA>   
    ##  5 HGDP000… Brah… male  Centra… scg   chr1:1…   4035 1445.   1.15  ro    <NA>   
    ##  6 HGDP000… Brah… male  Centra… scg   chr1:1…   2500  924.   1.19  ro    <NA>   
    ##  7 HGDP000… Brah… male  Centra… scg   chr1:1…   2599  779.   0.962 ro    <NA>   
    ##  8 HGDP000… Brah… male  Centra… scg   chr1:1…   2124  613.   0.926 ro    <NA>   
    ##  9 HGDP000… Brah… male  Centra… scg   chr1:2…   6284 2020.   1.03  ro    <NA>   
    ## 10 HGDP000… Brah… male  Centra… scg   chr1:2…   3222 1054.   1.05  ro    <NA>   
    ## # … with 1,140,402 more rows, 2 more variables: shared_with <chr>, class <chr>,
    ## #   and abbreviated variable names ¹​familyname, ²​copynumber, ³​superfamily
…
