…
``` r
data <- filter(HGDP, type=="te") %>% group_by(familyname, sex) %>% dplyr::summarise(sd=sd(copynumber), mean=mean(copynumber))
```

    ## `summarise()` has grouped output by 'familyname'. You can override using the
    ## `.groups` argument.

``` r
f<-filter(data, sex=="female") %>% dplyr::rename(f_mean = mean, f_sd = sd)
m<-filter(data, sex=="male") %>% dplyr::rename(m_mean = mean, m_sd = sd)

(final_data <- inner_join(f, m, by = "familyname") %>% select(familyname, f_mean, m_mean, f_sd, m_sd) %>% mutate(f_mean_log=log(f_mean), m_mean_log=log(m_mean), diff=m_mean-f_mean, abs_diff=abs(diff), ratio=case_when(diff>=0 ~ m_mean/f_mean, diff<0 ~ f_mean/m_mean), more_in=case_when(diff>=0 ~ "male", diff<0 ~ "female")) %>% arrange(desc(ratio)) %>% mutate(familyname=fct_reorder(familyname,ratio)))
```

    ## # A tibble: 968 × 11
    ## # Groups:   familyname [968]
    ##    familyname    f_mean  m_mean    f_sd    m_sd f_mea…¹ m_mea…²     diff abs_d…³
    ##    <fct>          <dbl>   <dbl>   <dbl>   <dbl>   <dbl>   <dbl>    <dbl>   <dbl>
    ##  1 HSATI        3.41e+2 2.12e+3 1.85e+2 5.16e+2   5.83    7.66   1.78e+3 1.78e+3
    ##  2 UCON106      3.66e-1 1.92e-1 8.25e-2 6.19e-2  -1.00   -1.65  -1.74e-1 1.74e-1
    ##  3 X17_DNA      7.12e-1 3.74e-1 1.15e-1 7.79e-2  -0.340  -0.984 -3.38e-1 3.38e-1
    ##  4 X3_LINE      3.55e-1 1.88e-1 7.54e-2 4.99e-2  -1.03   -1.67  -1.67e-1 1.67e-1
    ##  5 Tigger16b    2.14e-1 1.14e-1 4.78e-2 3.25e-2  -1.54   -2.18  -1.00e-1 1.00e-1
    ##  6 UCON64       7.76e-1 4.13e-1 1.28e-1 9.61e-2  -0.253  -0.885 -3.64e-1 3.64e-1
    ##  7 UCON79       4.11e-4 7.57e-4 2.38e-3 3.40e-3  -7.80   -7.19   3.46e-4 3.46e-4
    ##  8 HERV16       5.09e-1 3.00e-1 4.26e-2 2.40e-2  -0.676  -1.20  -2.08e-1 2.08e-1
    ##  9 X15_DNA      1.05e-3 6.42e-4 4.01e-3 2.25e-3  -6.85   -7.35  -4.13e-4 4.13e-4
    ## 10 Eutr10       1.94e-1 1.22e-1 2.94e-2 2.25e-2  -1.64   -2.10  -7.19e-2 7.19e-2
    ## # … with 958 more rows, 2 more variables: ratio <dbl>, more_in <chr>, and
    ## #   abbreviated variable names ¹​f_mean_log, ²​m_mean_log, ³​abs_diff
…
