…
``` r
L1ME5<-mteoutlierorder[mteoutlierorder$familyname=='L1ME5',]
L1ME5[L1ME5$copynumber<3,]
```

    ## # A tibble: 149 × 10
    ##    ID        Pop        sex   Country   type  famil…¹ length reads copyn…² batch
    ##    <chr>     <chr>      <chr> <chr>     <chr> <fct>    <dbl> <dbl>   <dbl> <chr>
    ##  1 HGDP01092 Biaka      male  Africa    te    L1ME5      507  69.6   0.488 flo  
    ##  2 HGDP01213 Daur       male  East_Asia te    L1ME5      507  63.5   0.473 flo  
    ##  3 HGDP01408 BantuKenya male  Africa    te    L1ME5      507  57.1   0.465 flo  
    ##  4 HGDP00985 Biaka      male  Africa    te    L1ME5      507  55.7   0.464 ro   
    ##  5 HGDP00057 Balochi    male  Central_… te    L1ME5      507  57.1   0.461 ro   
    ##  6 HGDP01200 Mandenka   male  Africa    te    L1ME5      507  60.6   0.447 flo  
    ##  7 HGDP00937 Yoruba     male  Africa    te    L1ME5      507  60.6   0.447 flo  
    ##  8 HGDP01225 Mongolian  male  East_Asia te    L1ME5      507  56.9   0.420 flo  
    ##  9 HGDP01037 Pima       male  America   te    L1ME5      507  55.1   0.413 ro   
    ## 10 HGDP00056 Balochi    male  Central_… te    L1ME5      507  50.2   0.413 ro   
    ## # … with 139 more rows, and abbreviated variable names ¹​familyname, ²​copynumber
…
