…
(libraries <- read_tsv("/Volumes/Temp1/rpianezza/investigation/libraries_HGDP_by_pop.tsv", col_names = c("pop", "country", "latitude", "longitude", "PCR_free", "PCR"), skip=1) %>% select(c(pop, latitude, longitude, PCR_free, PCR)))
```

    ## Rows: 54 Columns: 6
    ## ── Column specification ────────────────────────────────────────────────────────
    ## Delimiter: "\t"
    ## chr (2): pop, country
    ## dbl (4): latitude, longitude, PCR_free, PCR
    ## 
    ## ℹ Use `spec()` to retrieve the full column specification for this data.
    ## ℹ Specify the column types or set `show_col_types = FALSE` to quiet this message.

    ## # A tibble: 54 × 5
    ##    pop              latitude longitude PCR_free   PCR
    ##    <chr>               <dbl>     <dbl>    <dbl> <dbl>
    ##  1 Adygei               44        39         11     3
    ##  2 Balochi              30.5      66.5       19     3
    ##  3 BantuKenya           -3        37          0     9
    ##  4 BantuSouthAfrica    -25.6      24.2        1     3
    ##  5 Basque               43         0         21     0
    ##  6 Bedouin              31        35         41     3
    ##  7 BergamoItalian       46        10         10     0
    ##  8 Biaka                 4        17          3    17
    ##  9 Bougainville         -6       155          5     4
    ## 10 Brahui               30.5      66.5       20     3
    ## # … with 44 more rows
…
``` r
(gc <- read_tsv("/Volumes/Temp1/rpianezza/GC-content/gc-content.tsv"))
```

    ## Rows: 1703 Columns: 4
    ## ── Column specification ────────────────────────────────────────────────────────
    ## Delimiter: "\t"
    ## chr (2): familyname, type
    ## dbl (2): GC_content, length
    ## 
    ## ℹ Use `spec()` to retrieve the full column specification for this data.
    ## ℹ Specify the column types or set `show_col_types = FALSE` to quiet this message.

    ## # A tibble: 1,703 × 4
    ##    familyname type  GC_content length
    ##    <chr>      <chr>      <dbl>  <dbl>
    ##  1 LTR65      te          42.4    669
    ##  2 HERVK3I    te          42.4   7242
    ##  3 HERV9      te          45.5   8399
    ##  4 L1PA12_5   te          56.4   3072
    ##  5 LTR27C     te          54.0    767
    ##  6 LTR16A1    te          54.0    457
    ##  7 Tigger16a  te          46.8    933
    ##  8 LTR23      te          38.9    437
    ##  9 X32_DNA    te          29.8    336
    ## 10 LTR53      te          51.2    519
    ## # … with 1,693 more rows
…
``` r
names(HGDP) <- c("ID","pop","sex","country","type","familyname","length","reads","copynumber","batch")
HGDP <- HGDP %>% mutate(country = recode(country, "Oceania_(SGDP),Oceania"="Oceania"))
```

``` r
(SGDP_scg <- SGDP %>% filter(type=="scg") %>% group_by(biosample, pop, country, sex) %>% dplyr::summarise(var = var(copynumber)) %>% arrange(desc(var)))# %>% filter(var<0.025))
```

    ## `summarise()` has grouped output by 'biosample', 'pop', 'country'. You can
    ## override using the `.groups` argument.

    ## # A tibble: 276 × 5
    ## # Groups:   biosample, pop, country [276]
    ##    biosample    pop        country                  sex       var
    ##    <chr>        <chr>      <chr>                    <chr>   <dbl>
    ##  1 SAMEA3302887 Jordanian  West Eurasia             male   0.0609
    ##  2 SAMEA3302765 Crete      West Eurasia             female 0.0475
    ##  3 SAMEA3302697 Mixe       America                  female 0.0462
    ##  4 SAMEA3302833 Mbuti      Africa                   male   0.0453
    ##  5 SAMEA3302625 Crete      West Eurasia             male   0.0444
    ##  6 SAMEA3302719 Australian Oceania                  female 0.0444
    ##  7 SAMEA3302709 Quechua    America                  female 0.0442
    ##  8 SAMEA3302768 Kyrgyz     Central Asia and Siberia female 0.0438
    ##  9 SAMEA3302733 Dinka      Africa                   male   0.0413
    ## 10 SAMEA3302712 French     West Eurasia             male   0.0394
    ## # … with 266 more rows

``` r
(HGDP_scg <- HGDP %>% filter(type=="scg") %>% group_by(ID, pop, country, sex) %>% dplyr::summarise(var = var(copynumber)) %>% arrange(desc(var)))# %>% filter(var<0.025))
```

    ## `summarise()` has grouped output by 'ID', 'pop', 'country'. You can override
    ## using the `.groups` argument.

    ## # A tibble: 828 × 5
    ## # Groups:   ID, pop, country [828]
    ##    ID        pop         country            sex       var
    ##    <chr>     <chr>       <chr>              <chr>   <dbl>
    ##  1 HGDP01024 Han         East_Asia          female 0.0380
    ##  2 HGDP01263 Mozabite    Middle_East        male   0.0254
    ##  3 HGDP01381 Adygei      Europe             female 0.0180
    ##  4 HGDP00690 Palestinian Middle_East        female 0.0165
    ##  5 HGDP00468 Mbuti       Africa             male   0.0148
    ##  6 HGDP00452 Biaka       Africa             male   0.0145
    ##  7 HGDP00763 Japanese    East_Asia          male   0.0144
    ##  8 HGDP01254 Mozabite    Middle_East        female 0.0139
    ##  9 HGDP00854 Maya        America            female 0.0136
    ## 10 HGDP00119 Hazara      Central_South_Asia male   0.0127
    ## # … with 818 more rows
…
### The 27 missing samples

On the IGSR website there are 828 cram files. 152 are “whole-genome
sequencing”, thus PCR based. 676 are “PCR-free”. On the other hand, when
summing up the libraries indicated in the HGDP supplement, we have 152
**HGDP PCR** (right) but only 649 **HGDP PCR-free**. Where are the 27
missing samples?

``` r
(count <- HGDP %>% select(c(ID, pop)) %>% distinct() %>% group_by(pop) %>% dplyr::summarise(count=n()) %>% inner_join(libraries, by="pop") %>% mutate(libraries=PCR_free+PCR, missing=count-libraries))
```

    ## # A tibble: 54 × 8
    ##    pop              count latitude longitude PCR_free   PCR libraries missing
    ##    <chr>            <int>    <dbl>     <dbl>    <dbl> <dbl>     <dbl>   <dbl>
    ##  1 Adygei              15     44        39         11     3        14       1
    ##  2 Balochi             22     30.5      66.5       19     3        22       0
    ##  3 BantuKenya          10     -3        37          0     9         9       1
    ##  4 BantuSouthAfrica     4    -25.6      24.2        1     3         4       0
    ##  5 Basque              22     43         0         21     0        21       1
    ##  6 Bedouin             44     31        35         41     3        44       0
    ##  7 BergamoItalian      10     46        10         10     0        10       0
    ##  8 Biaka               24      4        17          3    17        20       4
    ##  9 Bougainville        11     -6       155          5     4         9       2
    ## 10 Brahui              23     30.5      66.5       20     3        23       0
    ## # … with 44 more rows
…
