…
``` r
data <- filter(HGDPcutoff, type=="te") %>% group_by(familyname, sex) %>% summarise(mean=mean(copynumber))
```

    ## `summarise()` has grouped output by 'familyname'. You can override using the
    ## `.groups` argument.

``` r
f<-filter(data, sex=="female") %>% rename(f_mean = mean)
m<-filter(data, sex=="male") %>% rename(m_mean = mean)

(final_data <- inner_join(f, m, by = "familyname") %>% select(familyname, f_mean, m_mean) %>% mutate(f_mean_log=log(f_mean), m_mean_log=log(m_mean), diff=m_mean-f_mean, abs_diff=abs(diff), ratio=case_when(diff>=0 ~ m_mean/f_mean, diff<0 ~ f_mean/m_mean), more_in=case_when(diff>=0 ~ "male", diff<0 ~ "female")) %>% arrange(desc(ratio)) %>% mutate(familyname=fct_reorder(familyname,ratio)))
```

    ## # A tibble: 965 × 9
    ## # Groups:   familyname [965]
    ##    familyname     f_mean   m_mean f_mea…¹ m_mea…²     diff abs_d…³ ratio more_in
    ##    <fct>           <dbl>    <dbl>   <dbl>   <dbl>    <dbl>   <dbl> <dbl> <chr>  
    ##  1 HSATI      334.        2.00e+3   5.81    7.60   1.67e+3 1.67e+3  5.99 male   
    ##  2 X17_DNA      0.708     3.68e-1  -0.346  -1.00  -3.40e-1 3.40e-1  1.92 female 
    ##  3 UCON64       0.775     4.08e-1  -0.255  -0.897 -3.67e-1 3.67e-1  1.90 female 
    ##  4 Tigger16b    0.206     1.09e-1  -1.58   -2.22  -9.74e-2 9.74e-2  1.90 female 
    ##  5 X3_LINE      0.356     1.88e-1  -1.03   -1.67  -1.68e-1 1.68e-1  1.89 female 
    ##  6 UCON106      0.368     1.97e-1  -1.00   -1.62  -1.71e-1 1.71e-1  1.87 female 
    ##  7 X15_DNA      0.000994  5.47e-4  -6.91   -7.51  -4.47e-4 4.47e-4  1.82 female 
    ##  8 UCON55       0.000261  1.45e-4  -8.25   -8.84  -1.17e-4 1.17e-4  1.81 female 
    ##  9 UCON79       0.000387  6.95e-4  -7.86   -7.27   3.08e-4 3.08e-4  1.79 male   
    ## 10 CHARLIE4     0.718     4.08e-1  -0.331  -0.897 -3.11e-1 3.11e-1  1.76 female 
    ## # … with 955 more rows, and abbreviated variable names ¹​f_mean_log,
    ## #   ²​m_mean_log, ³​abs_diff
…
