…
(RM <- read_delim("/Users/rpianezza/TE/T2T/RM_complete/GCF_009914755.1_T2T-CHM13v2.0_genomic_mod.fna.out", delim = " ",skip = 3, col_names = c("SWscore", "perc_div", "perc_del", "perc_ins", "query_sequence", "position_in_query_begin", "position_in_query_end", "position_in_query_left",  "strand", "matching_repeat", "repeat_class/family", "position_in_repeat_begin", "position_in_repeat_end", "position_in_repeat_left", "ID", "other_match")))
```

    ## Rows: 8353919 Columns: 16
    ## ── Column specification ────────────────────────────────────────────────────────
    ## Delimiter: " "
    ## chr (9): SWscore, query_sequence, position_in_query_left, strand, matching_r...
    ## dbl (7): perc_div, perc_del, perc_ins, position_in_query_begin, position_in_...
    ## 
    ## ℹ Use `spec()` to retrieve the full column specification for this data.
    ## ℹ Specify the column types or set `show_col_types = FALSE` to quiet this message.

    ## # A tibble: 8,353,919 × 16
    ##    SWscore perc_div perc_del perc_ins query_seq…¹ posit…² posit…³ posit…⁴ strand
    ##    <chr>      <dbl>    <dbl>    <dbl> <chr>         <dbl>   <dbl> <chr>   <chr> 
    ##  1 234          4.8      0        0   NC_060925.1    1885    1926 (24838… C     
    ##  2 250          2.4      0        2.4 NC_060925.1    1897    1939 (24838… C     
    ##  3 5109        11.7      1.1      0.8 NC_060925.1    2710    3803 (24838… C     
    ##  4 1236        20.6      2.2      3.1 NC_060925.1    3484    3843 (24838… C     
    ##  5 964         25.2      4.3      2.1 NC_060925.1    3542    3910 (24838… C     
    ##  6 902         25.5      4.4      2.7 NC_060925.1    3602    3968 (24838… C     
    ##  7 3879        13.6      5.3      2.2 NC_060925.1    3663    4398 (24838… C     
    ##  8 990         26.2     12.4      1   NC_060925.1    4083    4533 (24838… C     
    ##  9 552         18        5.7      0   NC_060925.1    4534    4655 (24838… C     
    ## 10 1013        24.2      5        1.1 NC_060925.1    4718    5139 (24838… +     
    ## # … with 8,353,909 more rows, 7 more variables: matching_repeat <chr>,
    ## #   `repeat_class/family` <chr>, position_in_repeat_begin <chr>,
    ## #   position_in_repeat_end <dbl>, position_in_repeat_left <chr>, ID <dbl>,
    ## #   other_match <chr>, and abbreviated variable names ¹​query_sequence,
    ## #   ²​position_in_query_begin, ³​position_in_query_end, ⁴​position_in_query_left
…
Here I select only the TE, removing KRAB and SCG from the RM dataset.
The resulting CSV file can be used for other analyses.

``` r
(RM_cutoff_te <- filter(RM_mod, str_detect(matching_repeat, ".te")))
```

    ## # A tibble: 1,168,220 × 18
    ##    SWscore perc_div perc_del perc_ins query_seq…¹ posit…² posit…³ posit…⁴ strand
    ##    <chr>      <dbl>    <dbl>    <dbl> <chr>         <dbl>   <dbl>   <dbl> <chr> 
    ##  1 4251         1.9      0        0.2 NC_060925.1  1.28e8  1.28e8  1.21e8 +     
    ##  2 201         11.3      6.3      5.6 NC_060925.1  2.09e8  2.09e8  3.95e7 +     
    ##  3 2985         6.8      1.2      0   NC_060926.1  1.33e8  1.33e8  1.10e8 +     
    ##  4 3406         7.4      1        0.4 NC_060926.1  1.33e8  1.33e8  1.10e8 +     
    ##  5 2922        10.5      3.6      3   NC_060926.1  1.33e8  1.33e8  1.10e8 +     
    ##  6 6574         2.4      0.2      0.1 NC_060927.1  9.58e7  9.58e7  1.05e8 +     
    ##  7 2956         3.7      0.3      0.1 NC_060927.1  9.58e7  9.58e7  1.05e8 +     
    ##  8 3129         3.6      0.2      0.1 NC_060927.1  9.58e7  9.58e7  1.05e8 +     
    ##  9 3093         4.2      0.4      0.5 NC_060927.1  9.58e7  9.58e7  1.05e8 +     
    ## 10 2920         3.8      0.3      0.1 NC_060927.1  9.58e7  9.58e7  1.05e8 +     
    ## # … with 1,168,210 more rows, 9 more variables: matching_repeat <chr>,
    ## #   `repeat_class/family` <chr>, position_in_repeat_begin <dbl>,
    ## #   position_in_repeat_end <dbl>, position_in_repeat_left <dbl>, ID <dbl>,
    ## #   other_match <chr>, fragment_len <dbl>, sequence_len <dbl>, and abbreviated
    ## #   variable names ¹​query_sequence, ²​position_in_query_begin,
    ## #   ³​position_in_query_end, ⁴​position_in_query_left
…
``` r
mean_female <- filter(HGDPcutoff, sex=="female") %>% group_by(familyname) %>% summarise(min = min(copynumber), mean = mean(copynumber), max = max(copynumber))

(art_female_HGDP <- inner_join(mean_female, art_female, by="familyname") %>% dplyr::rename(T2T_female = copynumber) %>% inner_join(divergence, by = "familyname"))
```

    ## # A tibble: 1,443 × 10
    ##    familyname     min    mean    max type  length  reads T2T_f…¹ mean_…² mean_…³
    ##    <chr>        <dbl>   <dbl>  <dbl> <chr>  <dbl>  <dbl>   <dbl>   <dbl>   <dbl>
    ##  1 6kbHsap    178.    300.    429.   te      6018 3.43e5 284.       5.50   0.597
    ##  2 a_AC06796…   0.953   1.30    1.63 krab    1209 3.12e2   1.29     0.2    0.999
    ##  3 a_AC09283…   0.982   1.21    1.51 krab    1264 2.96e2   1.17     0      0.999
    ##  4 a_CDK8_20    1.65    2.06    2.47 krab    1222 4.87e2   1.99     5.17   0.634
    ##  5 a_CHD3_3     0.605   1.01    1.32 krab    1090 2.32e2   1.06     0      0.999
    ##  6 a_CLTC_6     0.769   1.06    1.40 krab    1384 2.76e2   0.993    0      0.999
    ##  7 a_DCT_12     0.800   0.983   1.61 krab    2487 4.96e2   0.994    0      1.00 
    ##  8 a_DNAJA2_…   0.815   1.06    1.30 krab    1594 3.18e2   0.994    0      0.999
    ##  9 a_E2F1_2     0.812   1.02    1.23 krab    1502 2.99e2   0.993    0      0.999
    ## 10 a_EGR1_4     1.02    1.25    1.54 krab    1321 3.29e2   1.24     0      0.999
    ## # … with 1,433 more rows, and abbreviated variable names ¹​T2T_female,
    ## #   ²​mean_div, ³​mean_length
…
``` r
mean_male <- filter(HGDPcutoff, sex=="male") %>% group_by(familyname) %>% summarise(min = min(copynumber), mean = mean(copynumber), max = max(copynumber))

(art_male_HGDP <- inner_join(mean_male, art_male, by="familyname") %>% dplyr::rename(T2T_male = copynumber) %>% inner_join(divergence, by = "familyname"))
```

    ## # A tibble: 1,443 × 10
    ##    familyname     min    mean    max type  length  reads T2T_m…¹ mean_…² mean_…³
    ##    <chr>        <dbl>   <dbl>  <dbl> <chr>  <dbl>  <dbl>   <dbl>   <dbl>   <dbl>
    ##  1 6kbHsap    214.    308.    434.   te      6018 2.93e5  245.      5.50   0.597
    ##  2 a_AC06796…   1.07    1.32    1.62 krab    1209 3.13e2    1.30    0.2    0.999
    ##  3 a_AC09283…   0.941   1.23    1.48 krab    1264 3.00e2    1.20    0      0.999
    ##  4 a_CDK8_20    1.63    2.07    2.59 krab    1222 4.87e2    2.01    5.17   0.634
    ##  5 a_CHD3_3     0.729   1.03    1.39 krab    1090 2.32e2    1.07    0      0.999
    ##  6 a_CLTC_6     0.736   1.05    1.34 krab    1384 2.76e2    1.00    0      0.999
    ##  7 a_DCT_12     0.789   0.985   1.22 krab    2487 4.96e2    1.01    0      1.00 
    ##  8 a_DNAJA2_…   0.774   1.05    1.42 krab    1594 3.18e2    1.00    0      0.999
    ##  9 a_E2F1_2     0.820   1.02    1.25 krab    1502 3.00e2    1.00    0      0.999
    ## 10 a_EGR1_4     0.967   1.26    1.57 krab    1321 3.29e2    1.25    0      0.999
    ## # … with 1,433 more rows, and abbreviated variable names ¹​T2T_male, ²​mean_div,
    ## #   ³​mean_length
…
