…
``` r
names(HGDPcutoff) <- c("ID","pop","sex","country","type","familyname","length","reads","copynumber","batch","dataset")

(metadata <- read_tsv("/Volumes/Temp1/rpianezza/TE/additional_samples/additional_samples.tsv", col_names=c("ID", "pop", "country", "sex", "link", "dataset", "sample_num")) %>% select(ID, pop, country, sex, dataset))
```

    ## Rows: 28 Columns: 7
    ## ── Column specification ────────────────────────────────────────────────────────
    ## Delimiter: "\t"
    ## chr (7): ID, pop, country, sex, link, dataset, sample_num
    ## 
    ## ℹ Use `spec()` to retrieve the full column specification for this data.
    ## ℹ Specify the column types or set `show_col_types = FALSE` to quiet this message.

    ## # A tibble: 28 × 5
    ##    ID      pop    country sex    dataset 
    ##    <chr>   <chr>  <chr>   <chr>  <chr>   
    ##  1 NA18858 Yoruba Africa  female 1000-30x
    ##  2 NA18853 Yoruba Africa  male   1000-30x
    ##  3 NA18860 Yoruba Africa  male   1000-30x
    ##  4 NA18485 Yoruba Africa  male   1000-30x
    ##  5 NA18505 Yoruba Africa  female 1000-30x
    ##  6 NA18517 Yoruba Africa  female 1000-30x
    ##  7 NA20505 Tuscan Europe  female 1000-30x
    ##  8 NA20512 Tuscan Europe  male   1000-30x
    ##  9 NA20517 Tuscan Europe  female 1000-30x
    ## 10 NA20524 Tuscan Europe  male   1000-30x
    ## # … with 18 more rows
…
