…
First, I order the dataset for `familyname`, `sex` and `copynumber`.
Then, I create a *CSV* file with the created dataset. The reason is that
I did not know how to perform the next coding steps in R, so I did that
in *Python 3*, in the script **find-gaps** which can be found in the
“ric-documentation/other-files/” folder.

``` r
(ordered <- arrange(TE, familyname, sex, copynumber))
```

    ## # A tibble: 814,752 × 15
    ## # Groups:   familyname, sex [1,968]
    ##    ID        Pop   sex   Country type  famil…¹ length  reads copyn…² batch   max
    ##    <chr>     <chr> <chr> <chr>   <chr> <chr>    <dbl>  <dbl>   <dbl> <chr> <dbl>
    ##  1 HGDP01373 Basq… fema… Europe  te    6kbHsap   6018 2.33e5    178. flo    429.
    ##  2 HGDP01366 Basq… fema… Europe  te    6kbHsap   6018 3.42e5    196. flo    429.
    ##  3 HGDP00323 Kala… fema… Centra… te    6kbHsap   6018 4.74e5    201. flo    429.
    ##  4 HGDP01276 Moza… fema… Middle… te    6kbHsap   6018 4.64e5    212. flo    429.
    ##  5 HGDP00797 Orca… fema… Europe  te    6kbHsap   6018 3.19e5    214. ro     429.
    ##  6 HGDP00581 Druze fema… Middle… te    6kbHsap   6018 3.20e5    218. flo    429.
    ##  7 HGDP01280 Moza… fema… Middle… te    6kbHsap   6018 4.16e5    221. flo    429.
    ##  8 HGDP00872 Maya  fema… America te    6kbHsap   6018 4.20e5    223. flo    429.
    ##  9 HGDP00244 Path… fema… Centra… te    6kbHsap   6018 3.86e5    227. ro     429.
    ## 10 HGDP00738 Pale… fema… Middle… te    6kbHsap   6018 3.57e5    228. ro     429.
    ## # … with 814,742 more rows, 4 more variables: min <dbl>, mean <dbl>,
    ## #   diff <dbl>, ratio <dbl>, and abbreviated variable names ¹​familyname,
    ## #   ²​copynumber
…
``` r
gaps_sorted <- arrange(gaps, sex, desc(maxgap))
mean <- select(TE, familyname, sex, min, max, mean)
(data <- inner_join(x=gaps_sorted, y=mean, by=c('familyname','sex')) %>% unique() %>% mutate(gap_mean_ratio=maxgap/mean) %>% relocate(maxgap, .after = mean) %>% arrange(desc(gap_mean_ratio)) %>% filter(max>1))
```

    ## # A tibble: 1,507 × 7
    ##    familyname  sex        min     max    mean   maxgap gap_mean_ratio
    ##    <chr>       <chr>    <dbl>   <dbl>   <dbl>    <dbl>          <dbl>
    ##  1 HSATI       female 142.    2297.   334.    1716.             5.14 
    ##  2 AmnSINE1_HS male     0.242    2.71   0.447    1.83           4.10 
    ##  3 L1ME5       female   0.267    8.62   6.62     5.45           0.823
    ##  4 L1ME5       male     0.201    8.01   4.94     2.80           0.568
    ##  5 UCON53      female   0.312    1.16   0.566    0.220          0.388
    ##  6 MER22       male    52.6    364.   165.      56.5            0.341
    ##  7 UCON93      male     0.211    1.15   0.566    0.183          0.324
    ##  8 UCON46      female   0.433    1.32   0.750    0.241          0.321
    ##  9 UCON96      male     0.224    1.01   0.539    0.168          0.311
    ## 10 HERV23      male     0.690    1.33   0.865    0.264          0.306
    ## # … with 1,497 more rows
…
