…
``` r
(HGDP_report <- read_tsv('/Users/rpianezza/TE/ric-documentation-Rmd/other-files/filereport_read_run_PRJEB6463_tsv.txt') %>% mutate(read_length = base_count/read_count))
```

    ## Rows: 7942 Columns: 7
    ## ── Column specification ────────────────────────────────────────────────────────
    ## Delimiter: "\t"
    ## chr (5): study_accession, sample_accession, experiment_accession, run_access...
    ## dbl (2): read_count, base_count
    ## 
    ## ℹ Use `spec()` to retrieve the full column specification for this data.
    ## ℹ Specify the column types or set `show_col_types = FALSE` to quiet this message.

    ## # A tibble: 7,942 × 8
    ##    study_accession sample_acce…¹ exper…² run_a…³ read_…⁴ base_…⁵ sampl…⁶ read_…⁷
    ##    <chr>           <chr>         <chr>   <chr>     <dbl>   <dbl> <chr>     <dbl>
    ##  1 PRJEB6463       SAMEA2580809  ERX132… ERR125…  8.40e7 1.27e10 HGDP00…     151
    ##  2 PRJEB6463       SAMEA2580910  ERX132… ERR125…  6.83e7 1.03e10 HGDP00…     151
    ##  3 PRJEB6463       SAMEA2580921  ERX132… ERR125…  7.51e7 1.13e10 HGDP00…     151
    ##  4 PRJEB6463       SAMEA2580929  ERX132… ERR125…  7.36e7 1.11e10 HGDP00…     151
    ##  5 PRJEB6463       SAMEA2580937  ERX132… ERR125…  7.38e7 1.11e10 HGDP00…     151
    ##  6 PRJEB6463       SAMEA2580945  ERX132… ERR125…  8.66e7 1.31e10 HGDP01…     151
    ##  7 PRJEB6463       SAMEA2580957  ERX132… ERR125…  7.08e7 1.07e10 HGDP01…     151
    ##  8 PRJEB6463       SAMEA2580969  ERX132… ERR125…  7.14e7 1.08e10 HGDP01…     151
    ##  9 PRJEB6463       SAMEA2580981  ERX132… ERR125…  6.67e7 1.01e10 HGDP01…     151
    ## 10 PRJEB6463       SAMEA2580992  ERX132… ERR125…  7.36e7 1.11e10 HGDP01…     151
    ## # … with 7,932 more rows, and abbreviated variable names ¹​sample_accession,
    ## #   ²​experiment_accession, ³​run_accession, ⁴​read_count, ⁵​base_count,
    ## #   ⁶​sample_alias, ⁷​read_length
…
