…
``` r
families_in_HGDP <- filter(HGDPcutoff, type=="te") %>% distinct(familyname) %>% pull()

classification <- filter(classification_tot, familyname %in% families_in_HGDP)

(HGDP_class <- inner_join(HGDPcutoff, classification, by="familyname"))
```

    ## # A tibble: 799,020 × 12
    ##    ID      Pop   sex   Country type  famil…¹ length  reads copyn…² batch super…³
    ##    <chr>   <chr> <chr> <chr>   <chr> <chr>    <dbl>  <dbl>   <dbl> <chr> <chr>  
    ##  1 HGDP00… Brah… male  Centra… te    LTR65      669 1.10e3 6.57e+0 ro    ERV1   
    ##  2 HGDP00… Brah… male  Centra… te    HERVK3I   7242 3.89e4 2.15e+1 ro    ERV2   
    ##  3 HGDP00… Brah… male  Centra… te    HERV9     8399 3.12e5 1.49e+2 ro    ERV1   
    ##  4 HGDP00… Brah… male  Centra… te    L1PA12…   3072 6.41e4 8.36e+1 ro    L1     
    ##  5 HGDP00… Brah… male  Centra… te    LTR27C     767 3.13e3 1.63e+1 ro    ERV1   
    ##  6 HGDP00… Brah… male  Centra… te    LTR16A1    457 4.14e2 3.63e+0 ro    ERV3   
    ##  7 HGDP00… Brah… male  Centra… te    Tigger…    933 9.32e0 4.01e-2 ro    Marine…
    ##  8 HGDP00… Brah… male  Centra… te    LTR23      437 7.70e3 7.06e+1 ro    ERV1   
    ##  9 HGDP00… Brah… male  Centra… te    X32_DNA    336 4.38e1 5.22e-1 ro    Marine…
    ## 10 HGDP00… Brah… male  Centra… te    LTR53      519 1.36e3 1.05e+1 ro    ERV3   
    ## # … with 799,010 more rows, 1 more variable: shared_with <chr>, and abbreviated
    ## #   variable names ¹​familyname, ²​copynumber, ³​superfamily
…
