…
``` r
data <- filter(HGDP, type=="te") %>% group_by(familyname, sex) %>% dplyr::summarise(sd=sd(copynumber), mean=mean(copynumber))
```

    ## `summarise()` has grouped output by 'familyname'. You can override using the
    ## `.groups` argument.

``` r
f<-filter(data, sex=="female") %>% dplyr::rename(f_mean = mean, f_sd = sd)
m<-filter(data, sex=="male") %>% dplyr::rename(m_mean = mean, m_sd = sd)

(final_data <- inner_join(f, m, by = "familyname") %>% select(familyname, f_mean, m_mean, f_sd, m_sd) %>% mutate(f_mean_log=log(f_mean), m_mean_log=log(m_mean), diff=m_mean-f_mean, abs_diff=abs(diff), ratio=case_when(diff>=0 ~ m_mean/f_mean, diff<0 ~ f_mean/m_mean), more_in=case_when(diff>=0 ~ "male", diff<0 ~ "female")) %>% arrange(desc(ratio)) %>% mutate(familyname=fct_reorder(familyname,ratio)))
```

    ## # A tibble: 965 × 11
    ## # Groups:   familyname [965]
    ##    familyname    f_mean  m_mean    f_sd    m_sd f_mea…¹ m_mea…²     diff abs_d…³
    ##    <fct>          <dbl>   <dbl>   <dbl>   <dbl>   <dbl>   <dbl>    <dbl>   <dbl>
    ##  1 HSATI        3.41e+2 2.12e+3 1.85e+2 5.16e+2   5.83    7.66   1.78e+3 1.78e+3
    ##  2 UCON106      3.67e-1 1.92e-1 8.26e-2 6.20e-2  -1.00   -1.65  -1.75e-1 1.75e-1
    ##  3 Tigger16b    2.06e-1 1.08e-1 4.72e-2 3.18e-2  -1.58   -2.22  -9.79e-2 9.79e-2
    ##  4 X17_DNA      7.12e-1 3.74e-1 1.15e-1 7.79e-2  -0.339  -0.983 -3.38e-1 3.38e-1
    ##  5 X3_LINE      3.56e-1 1.88e-1 7.55e-2 5.00e-2  -1.03   -1.67  -1.67e-1 1.67e-1
    ##  6 UCON64       7.77e-1 4.13e-1 1.28e-1 9.62e-2  -0.252  -0.884 -3.64e-1 3.64e-1
    ##  7 UCON79       4.11e-4 7.58e-4 2.38e-3 3.40e-3  -7.80   -7.19   3.47e-4 3.47e-4
    ##  8 CHARLIE4     7.25e-1 4.23e-1 7.62e-2 4.62e-2  -0.321  -0.861 -3.02e-1 3.02e-1
    ##  9 HERV16       5.09e-1 3.00e-1 4.26e-2 2.40e-2  -0.676  -1.20  -2.09e-1 2.09e-1
    ## 10 X15_DNA      1.06e-3 6.43e-4 4.01e-3 2.25e-3  -6.85   -7.35  -4.13e-4 4.13e-4
    ## # … with 955 more rows, 2 more variables: ratio <dbl>, more_in <chr>, and
    ## #   abbreviated variable names ¹​f_mean_log, ²​m_mean_log, ³​abs_diff
…
