…
``` r
id <- HGDP %>% filter(sex=="male") %>% select(ID) %>% distinct()

hap2 <- inner_join(hap1, id, by="ID")

(metadata_hap <- inner_join(hap2, HGDP, by="ID"))
```

    ## # A tibble: 703,479 × 14
    ##    ID     haplo…¹ hap_g…² pop   sex   country type  famil…³ length reads copyn…⁴
    ##    <chr>  <chr>   <chr>   <chr> <chr> <chr>   <chr> <chr>    <dbl> <dbl>   <dbl>
    ##  1 HGDP0… L       6       Brah… male  Centra… scg   chr1:9…   4152 1279.   0.988
    ##  2 HGDP0… L       6       Brah… male  Centra… scg   chr1:9…   5136 1704.   1.06 
    ##  3 HGDP0… L       6       Brah… male  Centra… scg   chr1:1…   3064 1051.   1.10 
    ##  4 HGDP0… L       6       Brah… male  Centra… scg   chr1:1…   3239 1096.   1.09 
    ##  5 HGDP0… L       6       Brah… male  Centra… scg   chr1:1…   4035 1445.   1.15 
    ##  6 HGDP0… L       6       Brah… male  Centra… scg   chr1:1…   2500  924.   1.19 
    ##  7 HGDP0… L       6       Brah… male  Centra… scg   chr1:1…   2599  779.   0.962
    ##  8 HGDP0… L       6       Brah… male  Centra… scg   chr1:1…   2124  613.   0.926
    ##  9 HGDP0… L       6       Brah… male  Centra… scg   chr1:2…   6284 2020.   1.03 
    ## 10 HGDP0… L       6       Brah… male  Centra… scg   chr1:2…   3222 1054.   1.05 
    ## # … with 703,469 more rows, 3 more variables: batch <chr>, superfamily <chr>,
    ## #   shared_with <chr>, and abbreviated variable names ¹​haplotype, ²​hap_group,
    ## #   ³​familyname, ⁴​copynumber
…
