…
``` r
DNA_names <- c("Crypton", "hAT", "Helitron", "Kolobok", "Mariner/Tc1", "Merlin", "MuDR", "piggyBac", "DNA transposon")
LINE_names <- c("L1", "CR1", "L2", "Crack", "RTE", "RTEX", "R4", "Vingi", "Tx1", "Penelope")
SINE_names <- c("SINE1/7SL", "SINE2/tRNA", "SINE3/5S", "SINE")
LTR_names <- c("ERV1", "ERV2", "ERV3", "Gypsy", "Endogenous Retrovirus", "LTR Retrotransposon", "Long terminal repeat", "Non-LTR Retrotransposon")
satellites_names <- c("Satellite", "satellite", "SAT")

(classification <- select(HGDP, familyname, superfamily) %>% mutate(class = case_when(superfamily %in% DNA_names ~ "DNA", superfamily %in% LINE_names ~ "LINE", superfamily %in% SINE_names ~ "SINE", superfamily %in% LTR_names ~ "LTR", superfamily %in% satellites_names ~ "satellite")))
```

    ## # A tibble: 799,020 × 3
    ##    familyname superfamily class
    ##    <chr>      <chr>       <chr>
    ##  1 LTR65      ERV1        LTR  
    ##  2 HERVK3I    ERV2        LTR  
    ##  3 HERV9      ERV1        LTR  
    ##  4 L1PA12_5   L1          LINE 
    ##  5 LTR27C     ERV1        LTR  
    ##  6 LTR16A1    ERV3        LTR  
    ##  7 Tigger16a  Mariner/Tc1 DNA  
    ##  8 LTR23      ERV1        LTR  
    ##  9 X32_DNA    Mariner/Tc1 DNA  
    ## 10 LTR53      ERV3        LTR  
    ## # … with 799,010 more rows
…
Then, I calculate the **mean copynumber** of each TE for every continent
(`country`).

``` r
(continents <- by_pop %>% group_by(country, familyname, sex) %>% mutate(country = replace(country, country == 'Central_South_Asia', 'Eurasia')) %>% mutate(country = replace(country, country == 'East_Asia', 'Eurasia')) %>% mutate(country = replace(country, country == 'Middle_East', 'Eurasia')) %>% mutate(country = replace(country, country == 'Europe', 'Eurasia')) %>% dplyr::summarise(country_mean=mean(copynumber)) %>% arrange(familyname) %>% pivot_wider(names_from = country, values_from = country_mean) %>% inner_join(classification, by="familyname") %>% distinct())
```

    ## `summarise()` has grouped output by 'country', 'familyname'. You can override
    ## using the `.groups` argument.

    ## # A tibble: 1,930 × 8
    ## # Groups:   familyname [965]
    ##    familyname sex       Africa   America   Eurasia   Oceania superfamily class  
    ##    <chr>      <chr>      <dbl>     <dbl>     <dbl>     <dbl> <chr>       <chr>  
    ##  1 6kbHsap    female   324.      296.      299.      308.    satellite   satell…
    ##  2 6kbHsap    male     344.      316.      304.      290.    satellite   satell…
    ##  3 ALINE      female     0.122     0.128     0.134     0.135 RTEX        LINE   
    ##  4 ALINE      male       0.145     0.128     0.134     0.126 RTEX        LINE   
    ##  5 ALR        female 32412.    29301.    31567.    38618.    SAT         satell…
    ##  6 ALR        male   34003.    31119.    31994.    36701.    SAT         satell…
    ##  7 ALR_       female 78584.    75727.    78694.    83390.    SAT         satell…
    ##  8 ALR_       male   80091.    79914.    78435.    84444.    SAT         satell…
    ##  9 ALR1       female 70164.    66492.    71563.    81753.    SAT         satell…
    ## 10 ALR1       male   75555.    72189.    72538.    81859.    SAT         satell…
    ## # … with 1,920 more rows
…
    ## `summarise()` has grouped output by 'pop', 'country', 'familyname'. You can
    ## override using the `.groups` argument.

``` r
random_data <- inner_join(coord, random_by_pop, by = "pop")

(random_continents <- random_by_pop %>% group_by(country, familyname, sex) %>% mutate(country = replace(country, country == 'Central_South_Asia', 'Eurasia')) %>% mutate(country = replace(country, country == 'East_Asia', 'Eurasia')) %>% mutate(country = replace(country, country == 'Middle_East', 'Eurasia')) %>% mutate(country = replace(country, country == 'Europe', 'Eurasia')) %>% dplyr::summarise(country_mean=mean(copynumber)) %>% arrange(familyname) %>% pivot_wider(names_from = country, values_from = country_mean) %>% inner_join(classification, by="familyname") %>% distinct())
```

    ## `summarise()` has grouped output by 'country', 'familyname'. You can override
    ## using the `.groups` argument.

    ## # A tibble: 1,930 × 8
    ## # Groups:   familyname [965]
    ##    familyname sex    Africa America Eurasia Oceania superfamily class    
    ##    <chr>      <chr>   <dbl>   <dbl>   <dbl>   <dbl> <chr>       <chr>    
    ##  1 6kbHsap    female  0.568   0.518   0.510   0.417 satellite   satellite
    ##  2 6kbHsap    male    0.530   0.424   0.479   0.530 satellite   satellite
    ##  3 ALINE      female  0.617   0.385   0.464   0.487 RTEX        LINE     
    ##  4 ALINE      male    0.505   0.500   0.512   0.533 RTEX        LINE     
    ##  5 ALR        female  0.580   0.557   0.527   0.501 SAT         satellite
    ##  6 ALR        male    0.506   0.441   0.502   0.495 SAT         satellite
    ##  7 ALR_       female  0.591   0.479   0.532   0.299 SAT         satellite
    ##  8 ALR_       male    0.469   0.607   0.516   0.508 SAT         satellite
    ##  9 ALR1       female  0.635   0.490   0.515   0.421 SAT         satellite
    ## 10 ALR1       male    0.477   0.623   0.512   0.553 SAT         satellite
    ## # … with 1,920 more rows
…
