…
a_HGDP <- all_parabolas(HGDP)
a_SGDP <- all_parabolas(SGDP)

(joined_HGDP <- inner_join(HGDP, a_HGDP, by="ID") %>% filter(type=="te"))
```

    ## # A tibble: 799,020 × 11
    ##    ID       pop   sex   country type  famil…¹ length  reads copyn…² batch      a
    ##    <chr>    <chr> <chr> <chr>   <chr> <chr>    <dbl>  <dbl>   <dbl> <chr>  <dbl>
    ##  1 HGDP000… Brah… male  Centra… te    LTR65      669 1.10e3 6.57e+0 ro    -0.830
    ##  2 HGDP000… Brah… male  Centra… te    HERVK3I   7242 3.89e4 2.15e+1 ro    -0.830
    ##  3 HGDP000… Brah… male  Centra… te    HERV9     8399 3.12e5 1.49e+2 ro    -0.830
    ##  4 HGDP000… Brah… male  Centra… te    L1PA12…   3072 6.41e4 8.36e+1 ro    -0.830
    ##  5 HGDP000… Brah… male  Centra… te    LTR27C     767 3.13e3 1.63e+1 ro    -0.830
    ##  6 HGDP000… Brah… male  Centra… te    LTR16A1    457 4.14e2 3.63e+0 ro    -0.830
    ##  7 HGDP000… Brah… male  Centra… te    Tigger…    933 9.32e0 4.01e-2 ro    -0.830
    ##  8 HGDP000… Brah… male  Centra… te    LTR23      437 7.70e3 7.06e+1 ro    -0.830
    ##  9 HGDP000… Brah… male  Centra… te    X32_DNA    336 4.38e1 5.22e-1 ro    -0.830
    ## 10 HGDP000… Brah… male  Centra… te    LTR53      519 1.36e3 1.05e+1 ro    -0.830
    ## # … with 799,010 more rows, and abbreviated variable names ¹​familyname,
    ## #   ²​copynumber
…
