…
``` r
complete_introgression
```

    ## # A tibble: 828 × 4
    ##    archaic neandertal denisovan ID              
    ##      <int>      <int>     <int> <chr>           
    ##  1      13          7         2 HGDP00001-Brahui
    ##  2      28          7         0 HGDP00003-Brahui
    ##  3      37         12         1 HGDP00005-Brahui
    ##  4      41         11         1 HGDP00007-Brahui
    ##  5      24          5         1 HGDP00009-Brahui
    ##  6      27          4         0 HGDP00011-Brahui
    ##  7       8          6         2 HGDP00013-Brahui
    ##  8      30          5         0 HGDP00015-Brahui
    ##  9      40         15         1 HGDP00017-Brahui
    ## 10      27          2         1 HGDP00021-Brahui
    ## # ℹ 818 more rows

``` r
(data_introgression <- complete_introgression %>% separate(ID, into=c("ID","pop"), sep="\\-") %>% select(-pop) %>% inner_join(HGDP, by="ID"))
```

    ## # A tibble: 828 × 7
    ##    archaic neandertal denisovan ID        sex   country            pop   
    ##      <int>      <int>     <int> <chr>     <chr> <chr>              <chr> 
    ##  1      13          7         2 HGDP00001 male  Central_South_Asia Brahui
    ##  2      28          7         0 HGDP00003 male  Central_South_Asia Brahui
    ##  3      37         12         1 HGDP00005 male  Central_South_Asia Brahui
    ##  4      41         11         1 HGDP00007 male  Central_South_Asia Brahui
    ##  5      24          5         1 HGDP00009 male  Central_South_Asia Brahui
    ##  6      27          4         0 HGDP00011 male  Central_South_Asia Brahui
    ##  7       8          6         2 HGDP00013 male  Central_South_Asia Brahui
    ##  8      30          5         0 HGDP00015 male  Central_South_Asia Brahui
    ##  9      40         15         1 HGDP00017 male  Central_South_Asia Brahui
    ## 10      27          2         1 HGDP00021 male  Central_South_Asia Brahui
    ## # ℹ 818 more rows
…
